\relax 
\@writefile{toc}{\contentsline {chapter}{\numberline {1}Badanie w\IeC {\l }asno\IeC {\'s}ci filtra dolnoprzepustowego}{1}}
\@writefile{lof}{\addvspace {10\p@ }}
\@writefile{lot}{\addvspace {10\p@ }}
\@writefile{lof}{\contentsline {figure}{\numberline {1.1}{\ignorespaces Uk\IeC {\l }ad do pomiaru charakterystyki filtru dolnoprzepustowego\relax }}{1}}
\@writefile{toc}{\contentsline {section}{\numberline {1.1}Wyliczenie pojemno\IeC {\'s}ci kondensatora}{2}}
\@writefile{lof}{\contentsline {figure}{\numberline {1.2}{\ignorespaces Charakterystyka amplitudowo-czestotliwosciowa. Czestotliwosci graniczna jest rowna 4.924kHz dla -1.408dB\relax }}{2}}
\@writefile{toc}{\contentsline {section}{\numberline {1.2}\(f = 10 \cdot f_{fd}\)}{3}}
\@writefile{toc}{\contentsline {section}{\numberline {1.3}\(f = f_{fd}\)}{3}}
\@writefile{toc}{\contentsline {section}{\numberline {1.4}\(f = 0.1 \cdot f_{fd}\)}{4}}
\@writefile{toc}{\contentsline {section}{\numberline {1.5}Badanie charakterystyki amplitudowo \IeC {\textendash } czestotliwosciowej filtru dolnoprzepustowego z uzyciem indukcyjnosci zamiast pojemnosci}{5}}
\@writefile{lof}{\contentsline {figure}{\numberline {1.3}{\ignorespaces Uklad do badania charakterystyki amplitudowo \IeC {\textendash } czestotliwosciowej filtru dolnoprzepustowego z uzyciem indukcyjnosci zamiast pojemnosci\relax }}{5}}
\@writefile{toc}{\contentsline {section}{\numberline {1.6}Wyliczenie pojemno\IeC {\'s}ci cewki}{5}}
\@writefile{lof}{\contentsline {figure}{\numberline {1.4}{\ignorespaces Czestotliwosc graniczna wynosi \(\approx 5878Hz \) dla \(-2dB\)\relax }}{6}}
\@writefile{toc}{\contentsline {section}{\numberline {1.7}Wnioski}{6}}
\@writefile{toc}{\contentsline {chapter}{\numberline {2}Badanie w\IeC {\l }asno\IeC {\'s}ci filtra g\IeC {\'o}rnoprzepustowego}{7}}
\@writefile{lof}{\addvspace {10\p@ }}
\@writefile{lot}{\addvspace {10\p@ }}
\@writefile{lof}{\contentsline {figure}{\numberline {2.1}{\ignorespaces Uk\IeC {\l }ad do pomiaru charakterystyki filtru g\IeC {\'o}rnoprzepustowego\relax }}{7}}
\@writefile{lof}{\contentsline {figure}{\numberline {2.2}{\ignorespaces Charakterystyka amplitudowo-czestotliwosciowa. Czestotliwosci graniczna jest rowna 10.789kHz dla -1.3dB\relax }}{8}}
\@writefile{toc}{\contentsline {section}{\numberline {2.1}\(f = 10 \cdot f_{fg}\)}{8}}
\@writefile{toc}{\contentsline {section}{\numberline {2.2}\(f = f_{fg}\)}{9}}
\@writefile{toc}{\contentsline {section}{\numberline {2.3}\(f = 0.1 \cdot f_{fg}\)}{9}}
\@writefile{toc}{\contentsline {section}{\numberline {2.4}Badanie charakterystyki amplitudowo \IeC {\textendash } czestotliwosciowej filtru g\IeC {\'o}rnoprzepustowego z uzyciem indukcyjnosci zamiast pojemnosci}{10}}
\@writefile{lof}{\contentsline {figure}{\numberline {2.3}{\ignorespaces Uklad do badania charakterystyki amplitudowo \IeC {\textendash } czestotliwosciowej filtru dolnoprzepustowego z uzyciem indukcyjnosci zamiast pojemnosci\relax }}{10}}
\@writefile{lof}{\contentsline {figure}{\numberline {2.4}{\ignorespaces Czestotliwosci graniczna jest rowna 10.789kHz dla -1.3dB\relax }}{10}}
\@writefile{toc}{\contentsline {section}{\numberline {2.5}Wnioski}{11}}
\@writefile{toc}{\contentsline {chapter}{\numberline {3}Symulacja dzia\IeC {\l }ania uk\IeC {\l }adu zasilaj\IeC {\k a}cego z prostownikiem jednopo\IeC {\l }\IeC {\'o}wkowym}{12}}
\@writefile{lof}{\addvspace {10\p@ }}
\@writefile{lot}{\addvspace {10\p@ }}
\@writefile{lof}{\contentsline {figure}{\numberline {3.1}{\ignorespaces Uk\IeC {\l }ad do pomiaru symulacji dzia\IeC {\l }ania prostownika jednopo\IeC {\l }\IeC {\'o}wkowego bez kondensatora\relax }}{12}}
\@writefile{lof}{\contentsline {figure}{\numberline {3.2}{\ignorespaces Wykres dzia\IeC {\l }ania uk\IeC {\l }adu zasilaj\IeC {\k a}cego z prostownikiem jednopo\IeC {\l }\IeC {\'o}wkowym bez kondensatora\relax }}{13}}
\@writefile{lof}{\contentsline {figure}{\numberline {3.3}{\ignorespaces Uk\IeC {\l }ad do pomiaru symulacji dzia\IeC {\l }ania prostownika jednopo\IeC {\l }\IeC {\'o}wkowego z kondensatorem\relax }}{13}}
\@writefile{lof}{\contentsline {figure}{\numberline {3.4}{\ignorespaces Wykres dzia\IeC {\l }ania uk\IeC {\l }adu zasilajacego z prostownikiem jednopo\IeC {\l }owkowym z kondensatorem i obciazeniem rownym \(100\Omega \)\relax }}{14}}
\@writefile{lof}{\contentsline {figure}{\numberline {3.5}{\ignorespaces Uk\IeC {\l }adu do symulacji dzia\IeC {\l }ania zasilacza stabilizowanego\relax }}{14}}
\@writefile{lof}{\contentsline {figure}{\numberline {3.6}{\ignorespaces Wykres uk\IeC {\l }adu do symulacji dzia\IeC {\l }ania zasilacza stabilizowanego. Z otrzymanego wykresu mozna odczytac, ze wartosc napiecia tetnien wynosi 0V\relax }}{15}}
\@writefile{toc}{\contentsline {section}{\numberline {3.1}Wnioski}{15}}
