\relax 
\@writefile{toc}{\contentsline {chapter}{\numberline {1}Komparator napi\IeC {\k e}c}{1}}
\@writefile{lof}{\addvspace {10\p@ }}
\@writefile{lot}{\addvspace {10\p@ }}
\@writefile{toc}{\contentsline {section}{\numberline {1.1}Uk\IeC {\l }ad pomiarowy}{1}}
\@writefile{lof}{\contentsline {figure}{\numberline {1.1}{\ignorespaces Schemat uk\IeC {\l }adu komparatora napi\IeC {\k e}\IeC {\'c}\relax }}{1}}
\@writefile{toc}{\contentsline {section}{\numberline {1.2}V1 = 0V}{2}}
\@writefile{lof}{\contentsline {figure}{\numberline {1.2}{\ignorespaces V1 = 0V\relax }}{2}}
\@writefile{toc}{\contentsline {section}{\numberline {1.3}V1 = 500mV}{2}}
\@writefile{lof}{\contentsline {figure}{\numberline {1.3}{\ignorespaces V1 = 500mV\relax }}{2}}
\@writefile{toc}{\contentsline {section}{\numberline {1.4}V1 = -700mV}{3}}
\@writefile{lof}{\contentsline {figure}{\numberline {1.4}{\ignorespaces V1 = -700mV\relax }}{3}}
\@writefile{toc}{\contentsline {section}{\numberline {1.5}Wnioski}{3}}
\@writefile{toc}{\contentsline {chapter}{\numberline {2}Detektor przej\IeC {\'s}cia przez zero}{4}}
\@writefile{lof}{\addvspace {10\p@ }}
\@writefile{lot}{\addvspace {10\p@ }}
\@writefile{toc}{\contentsline {section}{\numberline {2.1}Uk\IeC {\l }ad pomiarowy}{4}}
\@writefile{lof}{\contentsline {figure}{\numberline {2.1}{\ignorespaces Uk\IeC {\l }ad pomiarowy detektora przej\IeC {\'s}cia przez zero\relax }}{4}}
\@writefile{toc}{\contentsline {section}{\numberline {2.2}0V}{5}}
\@writefile{lof}{\contentsline {figure}{\numberline {2.2}{\ignorespaces Pomiar dla napi\IeC {\k e}cia sta\IeC {\l }\IeC {\k e}go r\IeC {\'o}wnego 0V\relax }}{5}}
\@writefile{toc}{\contentsline {section}{\numberline {2.3}1V}{5}}
\@writefile{lof}{\contentsline {figure}{\numberline {2.3}{\ignorespaces Pomiar dla napi\IeC {\k e}cia sta\IeC {\l }\IeC {\k e}go r\IeC {\'o}wnego 1V\relax }}{5}}
\@writefile{toc}{\contentsline {section}{\numberline {2.4}2V}{6}}
\@writefile{lof}{\contentsline {figure}{\numberline {2.4}{\ignorespaces Pomiar dla napi\IeC {\k e}cia sta\IeC {\l }\IeC {\k e}go r\IeC {\'o}wnego 2V\relax }}{6}}
\@writefile{toc}{\contentsline {section}{\numberline {2.5}3V}{6}}
\@writefile{lof}{\contentsline {figure}{\numberline {2.5}{\ignorespaces Pomiar dla napi\IeC {\k e}cia sta\IeC {\l }\IeC {\k e}go r\IeC {\'o}wnego 3V\relax }}{6}}
\@writefile{toc}{\contentsline {section}{\numberline {2.6}Obserwacja dla przebiegu sinusoidalnego 0.5Khz oraz amplitudzie 3V}{7}}
\@writefile{lof}{\contentsline {figure}{\numberline {2.6}{\ignorespaces Pomiar dla napi\IeC {\k e}cie sinusoidalnego 3V o cz\IeC {\k e}stotliwo\IeC {\'s}ci 0.5Khz\relax }}{7}}
\@writefile{toc}{\contentsline {section}{\numberline {2.7}Wnioski}{7}}
\@writefile{toc}{\contentsline {chapter}{\numberline {3}Detektor warto\IeC {\'s}ci sztywnej}{8}}
\@writefile{lof}{\addvspace {10\p@ }}
\@writefile{lot}{\addvspace {10\p@ }}
\@writefile{toc}{\contentsline {section}{\numberline {3.1}Uk\IeC {\l }ad pomiarowy}{8}}
\@writefile{lof}{\contentsline {figure}{\numberline {3.1}{\ignorespaces Uk\IeC {\l }ad pomiarowy detektora warto\IeC {\'s}ci sztywnej\relax }}{8}}
\@writefile{toc}{\contentsline {section}{\numberline {3.2}Funkcja sinusoidalna}{9}}
\@writefile{lof}{\contentsline {figure}{\numberline {3.2}{\ignorespaces Pomiar dla funkcji sinusoidalnej\relax }}{9}}
\@writefile{toc}{\contentsline {section}{\numberline {3.3}Funkcja tr\IeC {\'o}jk\IeC {\k a}tna}{9}}
\@writefile{lof}{\contentsline {figure}{\numberline {3.3}{\ignorespaces Pomiar dla funkcji tr\IeC {\'o}jk\IeC {\k a}tnej\relax }}{9}}
\@writefile{toc}{\contentsline {section}{\numberline {3.4}Funkcja prostok\IeC {\k a}tna}{10}}
\@writefile{lof}{\contentsline {figure}{\numberline {3.4}{\ignorespaces Pomiar dla funkcji prostok\IeC {\k a}tnej\relax }}{10}}
\@writefile{toc}{\contentsline {chapter}{\numberline {4}Ogranicznik aplitudy}{11}}
\@writefile{lof}{\addvspace {10\p@ }}
\@writefile{lot}{\addvspace {10\p@ }}
\@writefile{toc}{\contentsline {section}{\numberline {4.1}Uk\IeC {\l }ad pomiarowy}{11}}
\@writefile{lof}{\contentsline {figure}{\numberline {4.1}{\ignorespaces Uk\IeC {\l }ad pomiarowy\relax }}{11}}
\@writefile{toc}{\contentsline {section}{\numberline {4.2}Pami\IeC {\k e}cie wej\IeC {\'s}cia - 1V}{12}}
\@writefile{lof}{\contentsline {figure}{\numberline {4.2}{\ignorespaces Pomiar dla napi\IeC {\k e}cia wej\IeC {\'s}cia 1V\relax }}{12}}
\@writefile{toc}{\contentsline {section}{\numberline {4.3}Pami\IeC {\k e}cie wej\IeC {\'s}cia - 2V}{12}}
\@writefile{lof}{\contentsline {figure}{\numberline {4.3}{\ignorespaces Pomiar dla napi\IeC {\k e}cia wej\IeC {\'s}cia 2V\relax }}{12}}
\@writefile{toc}{\contentsline {section}{\numberline {4.4}Pami\IeC {\k e}cie wej\IeC {\'s}cia - 3V}{13}}
\@writefile{lof}{\contentsline {figure}{\numberline {4.4}{\ignorespaces Pomiar dla napi\IeC {\k e}cia wej\IeC {\'s}cia 3V\relax }}{13}}
\@writefile{toc}{\contentsline {section}{\numberline {4.5}Obserwacja dla tr\IeC {\'o}jk\IeC {\k a}tnego wej\IeC {\'s}cia}{13}}
\@writefile{lof}{\contentsline {figure}{\numberline {4.5}{\ignorespaces Pomiar dla tr\IeC {\'o}jk\IeC {\k a}tnego wej\IeC {\'s}cia\relax }}{13}}
\@writefile{toc}{\contentsline {section}{\numberline {4.6}Obserwacja dla prostok\IeC {\k a}tnego wej\IeC {\'s}cia}{14}}
\@writefile{lof}{\contentsline {figure}{\numberline {4.6}{\ignorespaces Pomiar dla prostok\IeC {\k a}tnego wej\IeC {\'s}cia\relax }}{14}}
\@writefile{toc}{\contentsline {section}{\numberline {4.7}Uk\IeC {\l }ad pomiarowy dla zmienionego typu diody}{14}}
\@writefile{lof}{\contentsline {figure}{\numberline {4.7}{\ignorespaces Uk\IeC {\l }ad pomiarowy dla zmienionego typu diody\relax }}{14}}
\@writefile{lof}{\contentsline {figure}{\numberline {4.8}{\ignorespaces Pomiar dla zmienionej diody\relax }}{15}}
\@writefile{toc}{\contentsline {chapter}{\numberline {5}Filtr \IeC {\'s}rodkowo-zaporowy}{16}}
\@writefile{lof}{\addvspace {10\p@ }}
\@writefile{lot}{\addvspace {10\p@ }}
\@writefile{toc}{\contentsline {section}{\numberline {5.1}Uk\IeC {\l }ad pomiarowy}{16}}
\@writefile{lof}{\contentsline {figure}{\numberline {5.1}{\ignorespaces Schemat uk\IeC {\l }adu filtra \IeC {\'s}rodkowo-zaporowego\relax }}{16}}
\@writefile{toc}{\contentsline {section}{\numberline {5.2}Obliczenie cz\IeC {\k e}stotliwo\IeC {\'s}ci \IeC {\'s}rodkowej}{16}}
\@writefile{toc}{\contentsline {section}{\numberline {5.3}Symulacja}{17}}
\@writefile{lof}{\contentsline {figure}{\numberline {5.2}{\ignorespaces Pomiar u\IeC {\l }ady filtra \IeC {\'s}rodkowo-zaporowego\relax }}{17}}
\@writefile{toc}{\contentsline {section}{\numberline {5.4}Wnioski}{17}}
