# Fdb version 3
["pdflatex"] 1513376543 "/Users/baransu/Documents/Studia/2017-2018/PEITC/cwiczenie_5/main.tex" "main.pdf" "main" 1513376546
  "/Users/baransu/Documents/Studia/2017-2018/PEITC/cwiczenie_5/main.tex" 1513376543 6112 430d4b7de08da36ef3ba3f523f4c4ff4 ""
  "/usr/local/texlive/2017/texmf-dist/fonts/enc/dvips/cm-super/cm-super-t1.enc" 1480098666 2971 def0b6c1f0b107b3b936def894055589 ""
  "/usr/local/texlive/2017/texmf-dist/fonts/enc/dvips/pl/plmi.enc" 1480098668 2005 f094775651a1386335c158fb632529f1 ""
  "/usr/local/texlive/2017/texmf-dist/fonts/enc/dvips/pl/plrm.enc" 1480098668 1944 1845592c00bbe510359fd6887a83ff72 ""
  "/usr/local/texlive/2017/texmf-dist/fonts/map/fontname/texfonts.map" 1480098670 3287 e6b82fe08f5336d4d5ebc73fb1152e87 ""
  "/usr/local/texlive/2017/texmf-dist/fonts/tfm/jknappen/ec/ecbx1440.tfm" 1480098696 3584 13049b61b922a28b158a38aeff75ee9b ""
  "/usr/local/texlive/2017/texmf-dist/fonts/tfm/jknappen/ec/ecbx2074.tfm" 1480098696 3584 7666d038713b9e38abb5c2e0f6972188 ""
  "/usr/local/texlive/2017/texmf-dist/fonts/tfm/jknappen/ec/ecbx2488.tfm" 1480098696 3584 0181dbc4d429c3ba4e30feba37b5df96 ""
  "/usr/local/texlive/2017/texmf-dist/fonts/tfm/jknappen/ec/ecrm1000.tfm" 1480098696 3584 adb004a0c8e7c46ee66cad73671f37b4 ""
  "/usr/local/texlive/2017/texmf-dist/fonts/tfm/jknappen/ec/ecrm1200.tfm" 1480098696 3584 f80ddd985bd00e29e9a6047ebd9d4781 ""
  "/usr/local/texlive/2017/texmf-dist/fonts/tfm/jknappen/ec/ecrm1440.tfm" 1480098696 3584 3169d30142b88a27d4ab0e3468e963a2 ""
  "/usr/local/texlive/2017/texmf-dist/fonts/tfm/jknappen/ec/ecrm1728.tfm" 1480098696 3584 3c76ccb63eda935a68ba65ba9da29f1a ""
  "/usr/local/texlive/2017/texmf-dist/fonts/tfm/jknappen/ec/ecrm2074.tfm" 1480098696 3584 8e2870ec7aa9776f59654942b0923f51 ""
  "/usr/local/texlive/2017/texmf-dist/fonts/tfm/public/amsfonts/symbols/msam10.tfm" 1480098698 916 f87d7c45f9c908e672703b83b72241a3 ""
  "/usr/local/texlive/2017/texmf-dist/fonts/tfm/public/amsfonts/symbols/msam5.tfm" 1480098698 924 9904cf1d39e9767e7a3622f2a125a565 ""
  "/usr/local/texlive/2017/texmf-dist/fonts/tfm/public/amsfonts/symbols/msam7.tfm" 1480098698 928 2dc8d444221b7a635bb58038579b861a ""
  "/usr/local/texlive/2017/texmf-dist/fonts/tfm/public/amsfonts/symbols/msbm10.tfm" 1480098698 908 2921f8a10601f252058503cc6570e581 ""
  "/usr/local/texlive/2017/texmf-dist/fonts/tfm/public/amsfonts/symbols/msbm5.tfm" 1480098698 940 75ac932a52f80982a9f8ea75d03a34cf ""
  "/usr/local/texlive/2017/texmf-dist/fonts/tfm/public/amsfonts/symbols/msbm7.tfm" 1480098698 940 228d6584342e91276bf566bcf9716b83 ""
  "/usr/local/texlive/2017/texmf-dist/fonts/tfm/public/pl/plex10.tfm" 1480098717 992 93098cecc00cfdb7e881cb8983ca7545 ""
  "/usr/local/texlive/2017/texmf-dist/fonts/tfm/public/pl/plmi10.tfm" 1480098717 1528 c9811a5c54036a0d60617f9ae77b990e ""
  "/usr/local/texlive/2017/texmf-dist/fonts/tfm/public/pl/plmi12.tfm" 1480098717 1524 234f65aa0171d619f32097d0f9186df0 ""
  "/usr/local/texlive/2017/texmf-dist/fonts/tfm/public/pl/plmi5.tfm" 1480098717 1508 a2d14c74291841992fa64fe998b36f97 ""
  "/usr/local/texlive/2017/texmf-dist/fonts/tfm/public/pl/plmi6.tfm" 1480098717 1512 01fe68a80e3d13383410f67b67ce344d ""
  "/usr/local/texlive/2017/texmf-dist/fonts/tfm/public/pl/plmi7.tfm" 1480098717 1528 b9fad95d99dcea00da6a998803f85686 ""
  "/usr/local/texlive/2017/texmf-dist/fonts/tfm/public/pl/plmi8.tfm" 1480098717 1520 1a3ee2ce8d697eaf56e43f8d2c40cb71 ""
  "/usr/local/texlive/2017/texmf-dist/fonts/tfm/public/pl/plr10.tfm" 1480098717 2080 5c3eb4fec3b89def05dc3a4c6b93fb7c ""
  "/usr/local/texlive/2017/texmf-dist/fonts/tfm/public/pl/plr12.tfm" 1480098717 2076 e1758d4caaf275a731cf0532450f26f0 ""
  "/usr/local/texlive/2017/texmf-dist/fonts/tfm/public/pl/plr5.tfm" 1480098717 2008 3b7792da2ec68e9d8515961176bc983d ""
  "/usr/local/texlive/2017/texmf-dist/fonts/tfm/public/pl/plr6.tfm" 1480098717 2088 aa80c569a200447488b571f8bf7b132b ""
  "/usr/local/texlive/2017/texmf-dist/fonts/tfm/public/pl/plr7.tfm" 1480098717 2088 3950be4df310cc88dade7a45ba964220 ""
  "/usr/local/texlive/2017/texmf-dist/fonts/tfm/public/pl/plr8.tfm" 1480098717 2080 290449bfe12d41e2714fa828fd909bf8 ""
  "/usr/local/texlive/2017/texmf-dist/fonts/tfm/public/pl/plsy10.tfm" 1480098717 1308 adee1faadc465f51667a741ced3a8365 ""
  "/usr/local/texlive/2017/texmf-dist/fonts/tfm/public/pl/plsy5.tfm" 1480098717 1296 bc803ec3860b078a8e22fb7a6202aa37 ""
  "/usr/local/texlive/2017/texmf-dist/fonts/tfm/public/pl/plsy6.tfm" 1480098717 1300 730d55d47130c8c9a62c9e7eab4ae96a ""
  "/usr/local/texlive/2017/texmf-dist/fonts/tfm/public/pl/plsy7.tfm" 1480098717 1304 a6a2c86c403d8bc56664eeac17804b8a ""
  "/usr/local/texlive/2017/texmf-dist/fonts/tfm/public/pl/plsy8.tfm" 1480098717 1304 3b6e6a90176144a582c7bcae45156f9b ""
  "/usr/local/texlive/2017/texmf-dist/fonts/type1/public/cm-super/sfbx1440.pfb" 1480098737 135942 859a90cad7494a1e79c94baf546d7de5 ""
  "/usr/local/texlive/2017/texmf-dist/fonts/type1/public/cm-super/sfbx2074.pfb" 1480098737 140194 627cc7f36c05b80e25d178974ccb3442 ""
  "/usr/local/texlive/2017/texmf-dist/fonts/type1/public/cm-super/sfbx2488.pfb" 1480098737 135938 299ac3a69892db3b7674a8b2543b0a77 ""
  "/usr/local/texlive/2017/texmf-dist/fonts/type1/public/cm-super/sfrm1000.pfb" 1480098737 138258 6525c253f16cededa14c7fd0da7f67b2 ""
  "/usr/local/texlive/2017/texmf-dist/fonts/type1/public/cm-super/sfrm1200.pfb" 1480098737 136101 f533469f523533d38317ab5729d00c8a ""
  "/usr/local/texlive/2017/texmf-dist/fonts/type1/public/cm-super/sfrm1728.pfb" 1480098737 131438 3aa300b3e40e5c8ba7b4e5c6cebc5dd6 ""
  "/usr/local/texlive/2017/texmf-dist/fonts/type1/public/pl/plmi10.pfb" 1480098744 29517 25a85f8c34479bb523ce1a802f64ac2b ""
  "/usr/local/texlive/2017/texmf-dist/fonts/type1/public/pl/plmi7.pfb" 1480098744 30062 f256577ea5c665e43523d33b7c343f76 ""
  "/usr/local/texlive/2017/texmf-dist/fonts/type1/public/pl/plr10.pfb" 1480098744 27396 59c827d3c8566d0d9cbf81ac7c0d162a ""
  "/usr/local/texlive/2017/texmf-dist/fonts/type1/public/pl/plr7.pfb" 1480098744 27523 c9185de4b4f361086bdc0d056fdd2b09 ""
  "/usr/local/texlive/2017/texmf-dist/tex/context/base/mkii/supp-pdf.mkii" 1480098806 71627 94eb9990bed73c364d7f53f960cc8c5b ""
  "/usr/local/texlive/2017/texmf-dist/tex/generic/oberdiek/catchfile.sty" 1480098815 8493 e586100f117d095256a1a5c630c3fa25 ""
  "/usr/local/texlive/2017/texmf-dist/tex/generic/oberdiek/etexcmds.sty" 1480098815 7612 729a8cc22a1ee0029997c7f74717ae05 ""
  "/usr/local/texlive/2017/texmf-dist/tex/generic/oberdiek/ifluatex.sty" 1480098815 7324 2310d1247db0114eb4726807c8837a0e ""
  "/usr/local/texlive/2017/texmf-dist/tex/generic/oberdiek/ifpdf.sty" 1490564930 1251 d170e11a3246c3392bc7f59595af42cb ""
  "/usr/local/texlive/2017/texmf-dist/tex/generic/oberdiek/infwarerr.sty" 1480098815 8253 473e0e41f9adadb1977e8631b8f72ea6 ""
  "/usr/local/texlive/2017/texmf-dist/tex/generic/oberdiek/kvdefinekeys.sty" 1480098815 5152 b67a3a964ad9851e095110c854a1d461 ""
  "/usr/local/texlive/2017/texmf-dist/tex/generic/oberdiek/kvsetkeys.sty" 1480098815 14040 ac8866aac45982ac84021584b0abb252 ""
  "/usr/local/texlive/2017/texmf-dist/tex/generic/oberdiek/ltxcmds.sty" 1480098815 18425 5b3c0c59d76fac78978b5558e83c1f36 ""
  "/usr/local/texlive/2017/texmf-dist/tex/generic/oberdiek/pdftexcmds.sty" 1490564930 20151 72b3c7cacb61f7dd527505c39a23f7c1 ""
  "/usr/local/texlive/2017/texmf-dist/tex/generic/pgf/basiclayer/pgfcore.code.tex" 1480098816 1006 b103be0bfc8c1682ff1fa9760697a329 ""
  "/usr/local/texlive/2017/texmf-dist/tex/generic/pgf/basiclayer/pgfcorearrows.code.tex" 1480098816 43226 167a99346bfe2676e3efcdde2d81fe45 ""
  "/usr/local/texlive/2017/texmf-dist/tex/generic/pgf/basiclayer/pgfcoreexternal.code.tex" 1480098816 19302 4f089dc590e71f7331e6d5b5ea85273b ""
  "/usr/local/texlive/2017/texmf-dist/tex/generic/pgf/basiclayer/pgfcoregraphicstate.code.tex" 1480098816 6068 edae1e768a7d8d8f0f00e953d2b0153e ""
  "/usr/local/texlive/2017/texmf-dist/tex/generic/pgf/basiclayer/pgfcoreimage.code.tex" 1480098816 7041 a891ad72049e17c4e366c40ca37b0ccb ""
  "/usr/local/texlive/2017/texmf-dist/tex/generic/pgf/basiclayer/pgfcorelayers.code.tex" 1480098816 4625 40c07e9f6f2f7c674704b3f2055560ce ""
  "/usr/local/texlive/2017/texmf-dist/tex/generic/pgf/basiclayer/pgfcoreobjects.code.tex" 1480098816 2631 7eefa6cdbefd8d4e2bad7262cf1094cd ""
  "/usr/local/texlive/2017/texmf-dist/tex/generic/pgf/basiclayer/pgfcorepathconstruct.code.tex" 1480098816 43477 81143b33d9ebafdeead07ede13372427 ""
  "/usr/local/texlive/2017/texmf-dist/tex/generic/pgf/basiclayer/pgfcorepathprocessing.code.tex" 1480098816 17436 8d99d4113be311daf23deff86991ee7d ""
  "/usr/local/texlive/2017/texmf-dist/tex/generic/pgf/basiclayer/pgfcorepathusage.code.tex" 1480098816 20772 c57e34db4aa7b1da013169d04b743eac ""
  "/usr/local/texlive/2017/texmf-dist/tex/generic/pgf/basiclayer/pgfcorepatterns.code.tex" 1480098816 9641 711f0edc22c180a5caf168b6e8970057 ""
  "/usr/local/texlive/2017/texmf-dist/tex/generic/pgf/basiclayer/pgfcorepoints.code.tex" 1480098816 34516 658a71478d21df554bce9d9cd436203a ""
  "/usr/local/texlive/2017/texmf-dist/tex/generic/pgf/basiclayer/pgfcorequick.code.tex" 1480098816 3052 e5672c657232fd63b0a9853b0746297c ""
  "/usr/local/texlive/2017/texmf-dist/tex/generic/pgf/basiclayer/pgfcorescopes.code.tex" 1480098816 16669 4ec6e40088fc6de6334b443fe2dc59f0 ""
  "/usr/local/texlive/2017/texmf-dist/tex/generic/pgf/basiclayer/pgfcoreshade.code.tex" 1480098816 21541 4cd19f8ff7dd74d5aa7d803a6397af84 ""
  "/usr/local/texlive/2017/texmf-dist/tex/generic/pgf/basiclayer/pgfcoretransformations.code.tex" 1480098816 19998 d77fef95c7369827753d17fd11be19c4 ""
  "/usr/local/texlive/2017/texmf-dist/tex/generic/pgf/basiclayer/pgfcoretransparency.code.tex" 1480098816 8943 2e2495b057f8f0035b5568394d489963 ""
  "/usr/local/texlive/2017/texmf-dist/tex/generic/pgf/frontendlayer/tikz/libraries/tikzlibraryarrows.code.tex" 1480098816 437 cf40f841f40822be6cb995f8b47112fd ""
  "/usr/local/texlive/2017/texmf-dist/tex/generic/pgf/frontendlayer/tikz/libraries/tikzlibrarydecorations.code.tex" 1480098816 5484 4bb4a5cbbd05d6f17a261b59dbd014f1 ""
  "/usr/local/texlive/2017/texmf-dist/tex/generic/pgf/frontendlayer/tikz/libraries/tikzlibrarydecorations.pathmorphing.code.tex" 1480098816 319 d246cee5ce1aaf2afe558acd4731d5ba ""
  "/usr/local/texlive/2017/texmf-dist/tex/generic/pgf/frontendlayer/tikz/libraries/tikzlibrarydecorations.pathreplacing.code.tex" 1480098816 1255 7940bad47e253420d587a4a875c7c06c ""
  "/usr/local/texlive/2017/texmf-dist/tex/generic/pgf/frontendlayer/tikz/libraries/tikzlibrarypatterns.code.tex" 1480098816 884 60c3d56b80194544f9ecdae97dd5e286 ""
  "/usr/local/texlive/2017/texmf-dist/tex/generic/pgf/frontendlayer/tikz/libraries/tikzlibraryplotmarks.code.tex" 1480098816 443 6742ac279d940e87725265f9145ed090 ""
  "/usr/local/texlive/2017/texmf-dist/tex/generic/pgf/frontendlayer/tikz/libraries/tikzlibrarytopaths.code.tex" 1480098816 11599 d694704a88e2f9007c996d3a6a4d629c ""
  "/usr/local/texlive/2017/texmf-dist/tex/generic/pgf/frontendlayer/tikz/tikz.code.tex" 1480098816 176652 1c2926908e2b356d454795c35385d580 ""
  "/usr/local/texlive/2017/texmf-dist/tex/generic/pgf/libraries/decorations/pgflibrarydecorations.pathmorphing.code.tex" 1480098816 8854 7be3c3b9eb0de90885a881085ce8e118 ""
  "/usr/local/texlive/2017/texmf-dist/tex/generic/pgf/libraries/decorations/pgflibrarydecorations.pathreplacing.code.tex" 1480098816 7089 02ec01183269fb6991e0be82d034128a ""
  "/usr/local/texlive/2017/texmf-dist/tex/generic/pgf/libraries/pgflibraryarrows.code.tex" 1480098816 31927 7acd27f90dd95ce67ad32166cd0b95ec ""
  "/usr/local/texlive/2017/texmf-dist/tex/generic/pgf/libraries/pgflibraryfpu.code.tex" 1480098816 71137 c32d35e60bbb16d313e5b57ffc7e7f4a ""
  "/usr/local/texlive/2017/texmf-dist/tex/generic/pgf/libraries/pgflibrarypatterns.code.tex" 1480098816 7874 56ca58561783fbca7be095fa7178e656 ""
  "/usr/local/texlive/2017/texmf-dist/tex/generic/pgf/libraries/pgflibraryplothandlers.code.tex" 1480098816 32969 dbcfd5a7de6a0f7255c333ef60287d59 ""
  "/usr/local/texlive/2017/texmf-dist/tex/generic/pgf/libraries/pgflibraryplotmarks.code.tex" 1480098816 14289 3e102605531a114ad76afca2a43e66b7 ""
  "/usr/local/texlive/2017/texmf-dist/tex/generic/pgf/math/pgfmath.code.tex" 1480098816 454 9e9e7c99f4da4f41698be21eaef4938e ""
  "/usr/local/texlive/2017/texmf-dist/tex/generic/pgf/math/pgfmathcalc.code.tex" 1480098816 13416 940ea6971d7a65dc440d3479939c66ae ""
  "/usr/local/texlive/2017/texmf-dist/tex/generic/pgf/math/pgfmathfloat.code.tex" 1480098816 94097 62ac62cda46eb715560dc27f9ed6e8b1 ""
  "/usr/local/texlive/2017/texmf-dist/tex/generic/pgf/math/pgfmathfunctions.base.code.tex" 1480098816 9375 5adc70f722abd29fc250d59e0694b548 ""
  "/usr/local/texlive/2017/texmf-dist/tex/generic/pgf/math/pgfmathfunctions.basic.code.tex" 1480098816 22069 7c21c42b15718ce922f36235be360490 ""
  "/usr/local/texlive/2017/texmf-dist/tex/generic/pgf/math/pgfmathfunctions.code.tex" 1480098816 8210 a7be5b52ef3d2c087b7dc3d52898b67e ""
  "/usr/local/texlive/2017/texmf-dist/tex/generic/pgf/math/pgfmathfunctions.comparison.code.tex" 1480098816 3534 c7f28fbac13616513e513efe93b8569b ""
  "/usr/local/texlive/2017/texmf-dist/tex/generic/pgf/math/pgfmathfunctions.integerarithmetics.code.tex" 1480098816 3167 7c9394e79aac27db96a92f9b2792b858 ""
  "/usr/local/texlive/2017/texmf-dist/tex/generic/pgf/math/pgfmathfunctions.misc.code.tex" 1480098816 9289 261407875b9dbb0194691c3eb893610f ""
  "/usr/local/texlive/2017/texmf-dist/tex/generic/pgf/math/pgfmathfunctions.random.code.tex" 1480098816 7078 946ddf4a7e57219b6afdbad98eb6731b ""
  "/usr/local/texlive/2017/texmf-dist/tex/generic/pgf/math/pgfmathfunctions.round.code.tex" 1480098816 2688 139c6abc86761a6190c2f4bef5d752be ""
  "/usr/local/texlive/2017/texmf-dist/tex/generic/pgf/math/pgfmathfunctions.trigonometric.code.tex" 1480098816 92284 dcf023dbaa84e6c50e11c2f79fe8cfa6 ""
  "/usr/local/texlive/2017/texmf-dist/tex/generic/pgf/math/pgfmathparser.code.tex" 1480098816 35430 046e15fbb65e74d8f0e7945f99741fdb ""
  "/usr/local/texlive/2017/texmf-dist/tex/generic/pgf/math/pgfmathutil.code.tex" 1480098816 7099 f44d505bae6c7c2b933cdd63441db4b9 ""
  "/usr/local/texlive/2017/texmf-dist/tex/generic/pgf/modules/pgfmoduledecorations.code.tex" 1480098816 71902 658cc1e13f73daec4225b8fc1c27600b ""
  "/usr/local/texlive/2017/texmf-dist/tex/generic/pgf/modules/pgfmodulematrix.code.tex" 1480098816 20934 2328bd2e04520e1ab077ac4ee13b8935 ""
  "/usr/local/texlive/2017/texmf-dist/tex/generic/pgf/modules/pgfmoduleplot.code.tex" 1480098816 16203 83cbe1220e389eeee283a6168f9a567b ""
  "/usr/local/texlive/2017/texmf-dist/tex/generic/pgf/modules/pgfmoduleshapes.code.tex" 1480098816 42906 d54376d96df1a2ae2d33fb722236d8e9 ""
  "/usr/local/texlive/2017/texmf-dist/tex/generic/pgf/systemlayer/pgf.cfg" 1480098816 978 15af626ebd3d4d790aac19170dac04f2 ""
  "/usr/local/texlive/2017/texmf-dist/tex/generic/pgf/systemlayer/pgfsys-common-pdf.def" 1480098816 5437 d91f93ed61ecdc57e119849b2d784a0b ""
  "/usr/local/texlive/2017/texmf-dist/tex/generic/pgf/systemlayer/pgfsys-luatex.def" 1480098816 14274 79db5dec277817e8688d603ca0741ba3 ""
  "/usr/local/texlive/2017/texmf-dist/tex/generic/pgf/systemlayer/pgfsys-pdftex.def" 1480098816 13507 809d848d9262638e1b1705a68a73c566 ""
  "/usr/local/texlive/2017/texmf-dist/tex/generic/pgf/systemlayer/pgfsys.code.tex" 1480098816 35113 2ccc50c1c9573e4bac9230d030f9c67c ""
  "/usr/local/texlive/2017/texmf-dist/tex/generic/pgf/systemlayer/pgfsysprotocol.code.tex" 1480098816 1983 b5994ebbcee17f1ba3d29bb1bd696fcf ""
  "/usr/local/texlive/2017/texmf-dist/tex/generic/pgf/systemlayer/pgfsyssoftpath.code.tex" 1480098816 7881 d459d6057e13d10ce7a227ae44b7295e ""
  "/usr/local/texlive/2017/texmf-dist/tex/generic/pgf/utilities/pgffor.code.tex" 1480098816 22211 d696ef78c12269178882d218b2cf191d ""
  "/usr/local/texlive/2017/texmf-dist/tex/generic/pgf/utilities/pgfkeys.code.tex" 1480098816 36194 e194ef4e0b396b531a3891feb4b1cc22 ""
  "/usr/local/texlive/2017/texmf-dist/tex/generic/pgf/utilities/pgfkeysfiltered.code.tex" 1480098816 33377 af391d6ad1bfcbe2278e191f48e43ba8 ""
  "/usr/local/texlive/2017/texmf-dist/tex/generic/pgf/utilities/pgfrcs.code.tex" 1480098816 2536 a3b0529d815a2759ba157b56610a6377 ""
  "/usr/local/texlive/2017/texmf-dist/tex/generic/pgf/utilities/pgfutil-common-lists.tex" 1480098816 6833 114eda2cf1d348e0e7e477a1a4dc1941 ""
  "/usr/local/texlive/2017/texmf-dist/tex/generic/pgf/utilities/pgfutil-common.tex" 1480098816 16501 ab0135765e27b6b8dae047831fe84818 ""
  "/usr/local/texlive/2017/texmf-dist/tex/generic/pgf/utilities/pgfutil-latex.def" 1480098816 5544 294baac9629ba59f675b1f2027ad7136 ""
  "/usr/local/texlive/2017/texmf-dist/tex/generic/pgfplots/libs/pgflibrarypgfplots.surfshading.code.tex" 1480098816 22701 5fab7b8ebb90b053dc067d1bd37e43c2 ""
  "/usr/local/texlive/2017/texmf-dist/tex/generic/pgfplots/libs/pgfplotslibrary.code.tex" 1480098816 3047 aa82404aec57311271f4991c44bd71dc ""
  "/usr/local/texlive/2017/texmf-dist/tex/generic/pgfplots/liststructure/pgfplotsarray.code.tex" 1480098816 23554 2329167a4342ef7940774d27f5da7a8e ""
  "/usr/local/texlive/2017/texmf-dist/tex/generic/pgfplots/liststructure/pgfplotsdeque.code.tex" 1480098816 4288 b8d6247899b21e3bb66bb11b24d30f2c ""
  "/usr/local/texlive/2017/texmf-dist/tex/generic/pgfplots/liststructure/pgfplotsliststructure.code.tex" 1480098816 13828 11d1b09335a4a8baa693dd1e6cac3edf ""
  "/usr/local/texlive/2017/texmf-dist/tex/generic/pgfplots/liststructure/pgfplotsliststructureext.code.tex" 1480098816 24390 a91050077f9411f2aef1d9170ea974df ""
  "/usr/local/texlive/2017/texmf-dist/tex/generic/pgfplots/liststructure/pgfplotsmatrix.code.tex" 1480098816 18861 7dc35832c8ccea3aa73cdcd75ec0a60b ""
  "/usr/local/texlive/2017/texmf-dist/tex/generic/pgfplots/numtable/pgfplotstableshared.code.tex" 1480098816 78790 a65e8ae7faa242676e301ca01c675a20 ""
  "/usr/local/texlive/2017/texmf-dist/tex/generic/pgfplots/oldpgfcompatib/pgfplotsoldpgfsupp_loader.code.tex" 1480098816 9169 e6853d1b68db54033142f7f58384c511 ""
  "/usr/local/texlive/2017/texmf-dist/tex/generic/pgfplots/oldpgfcompatib/pgfplotsoldpgfsupp_pgflibraryfpu.code.tex" 1480098816 74458 c9d724521f9deb411a3f67b434d61dfc ""
  "/usr/local/texlive/2017/texmf-dist/tex/generic/pgfplots/oldpgfcompatib/pgfplotsoldpgfsupp_pgfmathfloat.code.tex" 1480098816 95281 deb64eaa5afb5bc8691b148da6a9089e ""
  "/usr/local/texlive/2017/texmf-dist/tex/generic/pgfplots/pgfplots.code.tex" 1480098816 476262 6fc4a7a800de280c880837f2d688e3af ""
  "/usr/local/texlive/2017/texmf-dist/tex/generic/pgfplots/pgfplots.errorbars.code.tex" 1480098816 22428 72578a4c9324bc5dfafe23fe64f64024 ""
  "/usr/local/texlive/2017/texmf-dist/tex/generic/pgfplots/pgfplots.markers.code.tex" 1480098816 12468 c7bf8a342a149a08e4d693258edc2751 ""
  "/usr/local/texlive/2017/texmf-dist/tex/generic/pgfplots/pgfplots.paths.code.tex" 1480098816 2419 026baafbf72a109e199ede6fbbfd9caa ""
  "/usr/local/texlive/2017/texmf-dist/tex/generic/pgfplots/pgfplots.revision.tex" 1480098816 516 af24b0994844fbcbf4abda6488baf10f ""
  "/usr/local/texlive/2017/texmf-dist/tex/generic/pgfplots/pgfplots.scaling.code.tex" 1480098816 123581 73f15802baf25f79026f6c41afd5a8e4 ""
  "/usr/local/texlive/2017/texmf-dist/tex/generic/pgfplots/pgfplotscoordprocessing.code.tex" 1480098816 353170 a8b6adf1c32cf25ea22da9bbd1870056 ""
  "/usr/local/texlive/2017/texmf-dist/tex/generic/pgfplots/pgfplotscore.code.tex" 1480098816 19944 7957349fbe31c4e8dea9de4cd41cb086 ""
  "/usr/local/texlive/2017/texmf-dist/tex/generic/pgfplots/pgfplotsmeshplothandler.code.tex" 1480098816 133937 887a2a5cc583145522b5a094aa0ca4f6 ""
  "/usr/local/texlive/2017/texmf-dist/tex/generic/pgfplots/pgfplotsmeshplotimage.code.tex" 1480098816 24402 288fc3f6c7980728b8a519dfd1737d22 ""
  "/usr/local/texlive/2017/texmf-dist/tex/generic/pgfplots/pgfplotsplothandlers.code.tex" 1480098816 117681 60581ee628186d51ed4aa2c9566bfe38 ""
  "/usr/local/texlive/2017/texmf-dist/tex/generic/pgfplots/pgfplotsstackedplots.code.tex" 1480098816 26190 c428334c805ae1d15110eb8670292947 ""
  "/usr/local/texlive/2017/texmf-dist/tex/generic/pgfplots/pgfplotsticks.code.tex" 1480098816 90272 786ef10f4d4d1fc87e12854535c6b679 ""
  "/usr/local/texlive/2017/texmf-dist/tex/generic/pgfplots/sys/pgflibrarypgfplots.surfshading.pgfsys-pdftex.def" 1480098816 5907 9dc460712c23e5b3338820499d47608c ""
  "/usr/local/texlive/2017/texmf-dist/tex/generic/pgfplots/sys/pgfplotssysgeneric.code.tex" 1480098816 3095 c82d281b748902a65be2ccca97360b11 ""
  "/usr/local/texlive/2017/texmf-dist/tex/generic/pgfplots/util/pgfplotsbinary.code.tex" 1480098816 23050 a369aa910ef860a3621fe0459faa335c ""
  "/usr/local/texlive/2017/texmf-dist/tex/generic/pgfplots/util/pgfplotsbinary.data.code.tex" 1480098816 26859 7a4ee9d206fb0a0daa0d3108445afb57 ""
  "/usr/local/texlive/2017/texmf-dist/tex/generic/pgfplots/util/pgfplotscolor.code.tex" 1480098816 23958 1b96260863091af1669c3a38b1c4c9af ""
  "/usr/local/texlive/2017/texmf-dist/tex/generic/pgfplots/util/pgfplotscolormap.code.tex" 1480098816 88606 4705fac3cfc92bbc352cfed0cb7be040 ""
  "/usr/local/texlive/2017/texmf-dist/tex/generic/pgfplots/util/pgfplotsutil.code.tex" 1480098816 69368 1411c417f435a55b47a899047ef160a9 ""
  "/usr/local/texlive/2017/texmf-dist/tex/generic/pgfplots/util/pgfplotsutil.verb.code.tex" 1480098816 3286 c17079ba50483e1ac1721268ea016041 ""
  "/usr/local/texlive/2017/texmf-dist/tex/generic/xkeyval/xkeyval.tex" 1480098819 19231 26434a5656c684f5ffb1f26f98006baa ""
  "/usr/local/texlive/2017/texmf-dist/tex/generic/xkeyval/xkvutils.tex" 1480098819 7677 6f5ce7c1124cad7ec57d05b2562bd8fe ""
  "/usr/local/texlive/2017/texmf-dist/tex/latex/amsfonts/amsfonts.sty" 1480098820 5949 3f3fd50a8cc94c3d4cbf4fc66cd3df1c ""
  "/usr/local/texlive/2017/texmf-dist/tex/latex/amsfonts/amssymb.sty" 1480098820 13829 94730e64147574077f8ecfea9bb69af4 ""
  "/usr/local/texlive/2017/texmf-dist/tex/latex/amsfonts/umsa.fd" 1480098820 961 6518c6525a34feb5e8250ffa91731cff ""
  "/usr/local/texlive/2017/texmf-dist/tex/latex/amsfonts/umsb.fd" 1480098820 961 d02606146ba5601b5645f987c92e6193 ""
  "/usr/local/texlive/2017/texmf-dist/tex/latex/amsmath/amsbsy.sty" 1480098820 2210 5c54ab129b848a5071554186d0168766 ""
  "/usr/local/texlive/2017/texmf-dist/tex/latex/amsmath/amsgen.sty" 1480098820 4160 c115536cf8d4ff25aa8c1c9bc4ecb79a ""
  "/usr/local/texlive/2017/texmf-dist/tex/latex/amsmath/amsmath.sty" 1485129665 84329 81aa65c5042562f79cb421feff9b8bdc ""
  "/usr/local/texlive/2017/texmf-dist/tex/latex/amsmath/amsopn.sty" 1480098820 4115 318a66090112f3aa3f415aeb6fe8540f ""
  "/usr/local/texlive/2017/texmf-dist/tex/latex/amsmath/amstext.sty" 1480098820 2431 fe3078ec12fc30287f568596f8e0b948 ""
  "/usr/local/texlive/2017/texmf-dist/tex/latex/base/fontenc.sty" 1492297155 4571 13977df0eda144b93597fc709035ad1f ""
  "/usr/local/texlive/2017/texmf-dist/tex/latex/base/ifthen.sty" 1480098821 5159 a08c9bbd48fc492f15b22e458bef961f ""
  "/usr/local/texlive/2017/texmf-dist/tex/latex/base/inputenc.sty" 1480098821 4732 d63eda807ac82cca2ca8488efd31a966 ""
  "/usr/local/texlive/2017/texmf-dist/tex/latex/base/omsenc.dfu" 1487721667 2004 ac51aeac484f08c01026120d62677eca ""
  "/usr/local/texlive/2017/texmf-dist/tex/latex/base/ot1enc.dfu" 1487721667 3181 1cb3e9ad01f4a01127b2ffd821bfeec7 ""
  "/usr/local/texlive/2017/texmf-dist/tex/latex/base/ot4enc.def" 1492297155 4649 47435a1b8cbcdfd497f4a4998335337f ""
  "/usr/local/texlive/2017/texmf-dist/tex/latex/base/report.cls" 1480098821 22880 e7be6f7dd8c05d5108bf3a7d8cabe59a ""
  "/usr/local/texlive/2017/texmf-dist/tex/latex/base/size10.clo" 1480098821 8292 e897c12e1e886ce77fe26afc5d470886 ""
  "/usr/local/texlive/2017/texmf-dist/tex/latex/base/t1enc.def" 1492297155 10006 a90ba4035cf778f32f424e297d92e235 ""
  "/usr/local/texlive/2017/texmf-dist/tex/latex/base/t1enc.dfu" 1487721667 11255 9d97362866549d3d3c994b5f28d1b9b5 ""
  "/usr/local/texlive/2017/texmf-dist/tex/latex/base/utf8.def" 1487721667 7784 325a2a09984cb5c4ff230f9867145ad3 ""
  "/usr/local/texlive/2017/texmf-dist/tex/latex/booktabs/booktabs.sty" 1480098823 5869 94335281ffcab47f341cf07ea8220e30 ""
  "/usr/local/texlive/2017/texmf-dist/tex/latex/caption/caption.sty" 1480098823 66233 8b81cfab95a1f8fc2f0f6c89415b087a ""
  "/usr/local/texlive/2017/texmf-dist/tex/latex/caption/caption3.sty" 1480098823 64866 1ea74c5f2d1685881497f021b8f186b2 ""
  "/usr/local/texlive/2017/texmf-dist/tex/latex/caption/subcaption.sty" 1480098823 5038 413302044f9700cf65465d590c2f4ad1 ""
  "/usr/local/texlive/2017/texmf-dist/tex/latex/etex-pkg/etex.sty" 1480098827 19013 c49da619eb7bd8093706fabc7ba9ceae ""
  "/usr/local/texlive/2017/texmf-dist/tex/latex/float/float.sty" 1480098828 6749 16d2656a1984957e674b149555f1ea1d ""
  "/usr/local/texlive/2017/texmf-dist/tex/latex/gnuplottex/gnuplottex.sty" 1480098830 9224 21069104a02af024954b4e5412e1b8a5 ""
  "/usr/local/texlive/2017/texmf-dist/tex/latex/graphics-cfg/color.cfg" 1480098830 1213 620bba36b25224fa9b7e1ccb4ecb76fd ""
  "/usr/local/texlive/2017/texmf-dist/tex/latex/graphics-cfg/graphics.cfg" 1480098830 1224 978390e9c2234eab29404bc21b268d1e ""
  "/usr/local/texlive/2017/texmf-dist/tex/latex/graphics-def/pdftex.def" 1485129666 58250 3792a9d2d1d664ee8c742498e295b051 ""
  "/usr/local/texlive/2017/texmf-dist/tex/latex/graphics/graphics.sty" 1492297155 14603 b288c52bd5d46d593af31dbc7e548236 ""
  "/usr/local/texlive/2017/texmf-dist/tex/latex/graphics/graphicx.sty" 1480098830 8125 557ab9f1bfa80d369fb45a914aa8a3b4 ""
  "/usr/local/texlive/2017/texmf-dist/tex/latex/graphics/keyval.sty" 1480098830 2594 d18d5e19aa8239cf867fa670c556d2e9 ""
  "/usr/local/texlive/2017/texmf-dist/tex/latex/graphics/trig.sty" 1480098830 3980 0a268fbfda01e381fa95821ab13b6aee ""
  "/usr/local/texlive/2017/texmf-dist/tex/latex/latexconfig/epstopdf-sys.cfg" 1480098833 678 4792914a8f45be57bb98413425e4c7af ""
  "/usr/local/texlive/2017/texmf-dist/tex/latex/moreverb/moreverb.sty" 1480098835 5863 07095464939df437145876547e980c96 ""
  "/usr/local/texlive/2017/texmf-dist/tex/latex/ms/everyshi.sty" 1480098835 3878 6aa7c08ff2621006e0603349e40a30a8 ""
  "/usr/local/texlive/2017/texmf-dist/tex/latex/oberdiek/epstopdf-base.sty" 1480098836 12095 5337833c991d80788a43d3ce26bd1c46 ""
  "/usr/local/texlive/2017/texmf-dist/tex/latex/oberdiek/grfext.sty" 1480098836 7075 2fe3d848bba95f139de11ded085e74aa ""
  "/usr/local/texlive/2017/texmf-dist/tex/latex/oberdiek/kvoptions.sty" 1480098836 22417 1d9df1eb66848aa31b18a593099cf45c ""
  "/usr/local/texlive/2017/texmf-dist/tex/latex/pgf/basiclayer/pgf.sty" 1480098837 1197 8a80cdde14696a9198f1793a55dcf332 ""
  "/usr/local/texlive/2017/texmf-dist/tex/latex/pgf/basiclayer/pgfcore.sty" 1480098837 410 5bf12ea7330e5f12c445332a4fe9a263 ""
  "/usr/local/texlive/2017/texmf-dist/tex/latex/pgf/compatibility/pgfcomp-version-0-65.sty" 1480098837 21115 facf03b7dbe5ea2f5f1dce1ac84b5d05 ""
  "/usr/local/texlive/2017/texmf-dist/tex/latex/pgf/compatibility/pgfcomp-version-1-18.sty" 1480098837 1091 d9163d29def82ee90370c8a63667742c ""
  "/usr/local/texlive/2017/texmf-dist/tex/latex/pgf/frontendlayer/tikz.sty" 1480098837 339 592cf35cba3d400082b8a9a5d0199d70 ""
  "/usr/local/texlive/2017/texmf-dist/tex/latex/pgf/math/pgfmath.sty" 1480098837 306 0796eafca5e159e6ec2167a6d22d81b1 ""
  "/usr/local/texlive/2017/texmf-dist/tex/latex/pgf/systemlayer/pgfsys.sty" 1480098837 443 0b2e781830192df35c0fd357cf13e26e ""
  "/usr/local/texlive/2017/texmf-dist/tex/latex/pgf/utilities/pgffor.sty" 1480098837 348 8927fde343487e003b01a4c2ca34073b ""
  "/usr/local/texlive/2017/texmf-dist/tex/latex/pgf/utilities/pgfkeys.sty" 1480098837 274 4cad6e665cc93ac2ac979039a94fa1e1 ""
  "/usr/local/texlive/2017/texmf-dist/tex/latex/pgf/utilities/pgfrcs.sty" 1480098837 325 2bcd023400636339210573e2b3ee298b ""
  "/usr/local/texlive/2017/texmf-dist/tex/latex/pgfplots/pgfplots.sty" 1480098837 4716 cc323f1c25d2dd60de87c1aff374e8b9 ""
  "/usr/local/texlive/2017/texmf-dist/tex/latex/polski/omlplm.fd" 1494024529 1553 7e55eec7e7ffbbc85187034f06b5977a ""
  "/usr/local/texlive/2017/texmf-dist/tex/latex/polski/omsplsy.fd" 1494024529 1472 cdbddbc0209f1dca4b38ccca913f65d7 ""
  "/usr/local/texlive/2017/texmf-dist/tex/latex/polski/omxplex.fd" 1494024529 1283 a1205ac8611390c6de04f8d76756c3c4 ""
  "/usr/local/texlive/2017/texmf-dist/tex/latex/polski/ot4cmr.fd" 1494024529 2599 8c16345f9109faed2ca2ff52e16d8a6f ""
  "/usr/local/texlive/2017/texmf-dist/tex/latex/polski/polski.sty" 1494024529 13310 401406f54546887504ce1857a307089b ""
  "/usr/local/texlive/2017/texmf-dist/tex/latex/tkz-tab/tkz-tab.sty" 1480098841 48419 92696db0eefc89608e40f0e369ba791b ""
  "/usr/local/texlive/2017/texmf-dist/tex/latex/tools/verbatim.sty" 1480098841 7264 cf839ee7f0c2bfc711b0b88970764569 ""
  "/usr/local/texlive/2017/texmf-dist/tex/latex/xcolor/xcolor.sty" 1480098843 55589 34128738f682d033422ca125f82e5d62 ""
  "/usr/local/texlive/2017/texmf-dist/tex/latex/xkeyval/xkeyval.sty" 1480098843 4962 9c1069474ff71dbc47d5006555e352d3 ""
  "/usr/local/texlive/2017/texmf-dist/web2c/texmf.cnf" 1494087824 32646 eadc4ca26cdbe7105ac7c593aa8c4f72 ""
  "/usr/local/texlive/2017/texmf-var/fonts/map/pdftex/updmap/pdftex.map" 1495593472 2350277 a699055bee05bf8a40b0504752487295 ""
  "/usr/local/texlive/2017/texmf-var/web2c/pdftex/pdflatex.fmt" 1510954351 4129593 d446f0107113a6f0b03316fbe0eac8af ""
  "/usr/local/texlive/2017/texmf.cnf" 1495593465 577 2b71d4d888f9e5560b2e99985915a9fa ""
  "images/cw5_1_pomiar_500mV.png" 1513273087 61563 5c2820547e2865edccb39a84fbf91035 ""
  "images/cw5_1_pomiar_default.png" 1513273095 61268 0c34d4d6fa039494668b66a65bb5ffff ""
  "images/cw5_1_pomiar_minus700mV.png" 1513273102 92742 8da54190baff54eb81d1a8cf7f5a77da ""
  "images/cw5_1_uklad.png" 1513273111 14677 f4beb1bd4fbaba089f5bc42ce030a027 ""
  "images/cw5_2_pomiar_0.png" 1513273120 93892 d8caf141c35142f5a8b3d863219447bf ""
  "images/cw5_2_pomiar_1.png" 1513273127 93492 e02531d41f3c5cd42e1784ae8de4ca9b ""
  "images/cw5_2_pomiar_2.png" 1513273135 93448 288729ca97b0ddd841d905697f4e1773 ""
  "images/cw5_2_pomiar_3.png" 1513273142 96831 75d63653bfb9da860315061e4678b05f ""
  "images/cw5_2_pomiar_4.png" 1513273149 96301 b58fc3a17cacd3c96dfd998946b29d05 ""
  "images/cw5_2_uklad.png" 1513273161 13581 e624e3e2d93e60c8a9ea53dc504476ac ""
  "images/cw5_3_pomiar_1.png" 1513273168 97698 f9c4acec7aa58ab74f239bafc78b9270 ""
  "images/cw5_3_pomiar_2.png" 1513273177 96383 91b2c9eeb234fa1de2062fce23aeed65 ""
  "images/cw5_3_pomiar_3.png" 1513273186 93844 ba89c0366f68513bf0645cf086653a32 ""
  "images/cw5_3_uklad.png" 1513375142 21700 1d423496376961dadfa9994b6d4edd79 ""
  "images/cw5_4_pomiar_1.png" 1513273194 97679 913c958fab13393fbbfd7e058dcd27b1 ""
  "images/cw5_4_pomiar_2.png" 1513273200 99208 373bf2226e98f25ab7f4351dafb2f6c8 ""
  "images/cw5_4_pomiar_3.png" 1513273207 92594 d2272d39c6ff8b40a9cf270952a7d03d ""
  "images/cw5_4_pomiar_4.png" 1513273214 96454 6abc5e7ffb8a817b71e53a1170886d76 ""
  "images/cw5_4_pomiar_5.png" 1513273221 90126 471ce68b8b29854b9ca6057a2e17400e ""
  "images/cw5_4_pomiar_6.png" 1513273229 86223 c8ac7f971c50c99419409819f39042c1 ""
  "images/cw5_4_uklad.png" 1513273239 22766 6994ef316ec6deccf525ae45f650709a ""
  "images/cw5_4_uklad_2.png" 1513375771 18052 07fe5339c0fb4e506f8a016b4c586c7e ""
  "images/cw5_5_pomiar.png" 1513273246 66586 0519797edc1ff2e139a5f27cf1f2cff4 ""
  "images/cw5_5_uklad.png" 1513273253 24114 2ead48cb8ee80a337894f5a4765679de ""
  "main.aux" 1513376545 6558 6cc80c0cf467786fabe464070db73e03 ""
  "main.tex" 1513376543 6112 430d4b7de08da36ef3ba3f523f4c4ff4 ""
  (generated)
  "main.aux"
  "main.pdf"
  "main.log"
