\relax 
\@writefile{toc}{\contentsline {chapter}{\numberline {1}Badanie charakterystki przej\IeC {\'s}ciowej bramki NAND}{1}}
\@writefile{lof}{\addvspace {10\p@ }}
\@writefile{lot}{\addvspace {10\p@ }}
\@writefile{lof}{\contentsline {figure}{\numberline {1.1}{\ignorespaces Schemat ideowy bramki dwuwej\IeC {\'s}ciowej NAND\relax }}{1}}
\@writefile{lof}{\contentsline {figure}{\numberline {1.2}{\ignorespaces Schemat do badania bramki NAND\relax }}{2}}
\@writefile{lof}{\contentsline {figure}{\numberline {1.3}{\ignorespaces Charakterystyka przej\IeC {\'s}ciowa badanego uk\IeC {\l }adu\relax }}{2}}
\@writefile{toc}{\contentsline {chapter}{\numberline {2}Badanie charakterystki przej\IeC {\'s}ciowej bramki NAND z uk\IeC {\l }adem Schmitt'a}{3}}
\@writefile{lof}{\addvspace {10\p@ }}
\@writefile{lot}{\addvspace {10\p@ }}
\@writefile{lof}{\contentsline {figure}{\numberline {2.1}{\ignorespaces Uk\IeC {\l }ad do pomiaru charakterystyki przej\IeC {\'s}ciowej bramki logicznej\relax }}{3}}
\@writefile{lof}{\contentsline {figure}{\numberline {2.2}{\ignorespaces Wynik pomiaru charakterystyki przej\IeC {\'s}ciowej bramki NAND\relax }}{4}}
\@writefile{toc}{\contentsline {chapter}{\numberline {3}Badanie dzia\IeC {\l }ania bramki NAND}{5}}
\@writefile{lof}{\addvspace {10\p@ }}
\@writefile{lot}{\addvspace {10\p@ }}
\@writefile{lof}{\contentsline {figure}{\numberline {3.1}{\ignorespaces Uk\IeC {\l }ad pomiarowy do wyznaczania tabeli prawdy 2-wej\IeC {\'s}ciowej bramki NAND\relax }}{5}}
\@writefile{lot}{\contentsline {table}{\numberline {3.1}{\ignorespaces Tabela prawdy 2-wej\IeC {\'s}ciowej bramki NAND\relax }}{6}}
\@writefile{lof}{\contentsline {figure}{\numberline {3.2}{\ignorespaces Uk\IeC {\l }ad pomiarowy do wyznaczania tabeli prawdy 3-wej\IeC {\'s}ciowej bramki NAND\relax }}{6}}
\@writefile{lot}{\contentsline {table}{\numberline {3.2}{\ignorespaces Tabela prawdy 3-wej\IeC {\'s}ciowej bramki NAND\relax }}{6}}
\@writefile{toc}{\contentsline {chapter}{\numberline {4}Testowanie uk\IeC {\l }ad\IeC {\'o}w cyfrowych}{7}}
\@writefile{lof}{\addvspace {10\p@ }}
\@writefile{lot}{\addvspace {10\p@ }}
\@writefile{lof}{\contentsline {figure}{\numberline {4.1}{\ignorespaces Uk\IeC {\l }ad pomiarowy dla testowania bramki NAND\relax }}{7}}
\@writefile{lof}{\contentsline {figure}{\numberline {4.2}{\ignorespaces Ustawienie generatora s\IeC {\l }\IeC {\'o}w dla pomiaru bramki NAND\relax }}{8}}
\@writefile{lof}{\contentsline {figure}{\numberline {4.3}{\ignorespaces Wynik pomiaru testowego bramki NAND\relax }}{8}}
\@writefile{toc}{\contentsline {chapter}{\numberline {5}Badanie dzia\IeC {\l }ania bramki XOR}{9}}
\@writefile{lof}{\addvspace {10\p@ }}
\@writefile{lot}{\addvspace {10\p@ }}
\@writefile{lof}{\contentsline {figure}{\numberline {5.1}{\ignorespaces Uk\IeC {\l }ad pomiarowy do wyznaczania tabeli prawdy 2-wej\IeC {\'s}ciowej bramki XOR\relax }}{9}}
\@writefile{lot}{\contentsline {table}{\numberline {5.1}{\ignorespaces Tabela prawdy 2-wej\IeC {\'s}ciowej bramki XOR\relax }}{9}}
\@writefile{toc}{\contentsline {chapter}{\numberline {6}Czas propagacji bramki EX-OR (7486)}{10}}
\@writefile{lof}{\addvspace {10\p@ }}
\@writefile{lot}{\addvspace {10\p@ }}
\@writefile{lof}{\contentsline {figure}{\numberline {6.1}{\ignorespaces Uk\IeC {\l }ad pomiarowy dla testowania dzia\IeC {\l }ania bramki XOR\relax }}{10}}
\@writefile{lof}{\contentsline {figure}{\numberline {6.2}{\ignorespaces Wynik pomiaru czasu propagacji bramki XOR\relax }}{11}}
\@writefile{toc}{\contentsline {chapter}{\numberline {7}Realizacja prostych funkcji logicznych}{12}}
\@writefile{lof}{\addvspace {10\p@ }}
\@writefile{lot}{\addvspace {10\p@ }}
\@writefile{toc}{\contentsline {section}{\numberline {7.1}Bramka NOT}{12}}
\@writefile{lof}{\contentsline {figure}{\numberline {7.1}{\ignorespaces Uk\IeC {\l }ad pomiarowy NOT\relax }}{12}}
\@writefile{lof}{\contentsline {figure}{\numberline {7.2}{\ignorespaces Wynik pomiaru bramki NOT\relax }}{13}}
\@writefile{toc}{\contentsline {section}{\numberline {7.2}Bramka AND}{13}}
\@writefile{lof}{\contentsline {figure}{\numberline {7.3}{\ignorespaces Uk\IeC {\l }ad pomiarowy AND\relax }}{13}}
\@writefile{lof}{\contentsline {figure}{\numberline {7.4}{\ignorespaces Wynik pomiaru bramki AND\relax }}{14}}
\@writefile{toc}{\contentsline {section}{\numberline {7.3}Bramka OR}{14}}
\@writefile{lof}{\contentsline {figure}{\numberline {7.5}{\ignorespaces Uk\IeC {\l }ad pomiarowy OR\relax }}{14}}
\@writefile{lof}{\contentsline {figure}{\numberline {7.6}{\ignorespaces Wynik pomiaru bramki OR\relax }}{15}}
\@writefile{toc}{\contentsline {chapter}{\numberline {8}Badanie uk\IeC {\l }adu realizowanego na bramkach z otwartym kolektorem}{16}}
\@writefile{lof}{\addvspace {10\p@ }}
\@writefile{lot}{\addvspace {10\p@ }}
\@writefile{lof}{\contentsline {figure}{\numberline {8.1}{\ignorespaces Uk\IeC {\l }ad ideowy bramki NAND z otwartym kolektorem\relax }}{16}}
\@writefile{lof}{\contentsline {figure}{\numberline {8.2}{\ignorespaces Uk\IeC {\l }ad pomiarowy bramki NAND z otwarym kolektorem\relax }}{17}}
\@writefile{lof}{\contentsline {figure}{\numberline {8.3}{\ignorespaces Wynik pomiaru dla bramki NAND z otwarym kolektorem 1\relax }}{17}}
\@writefile{lof}{\contentsline {figure}{\numberline {8.4}{\ignorespaces Wynik pomiaru dla bramki NAND z otwarym kolektorem 2\relax }}{18}}
