\relax 
\@writefile{toc}{\contentsline {chapter}{\numberline {1}Pomiar pr\IeC {\k a}du i napi\IeC {\k e}cia w obwodzie}{1}}
\@writefile{lof}{\addvspace {10\p@ }}
\@writefile{lot}{\addvspace {10\p@ }}
\@writefile{toc}{\contentsline {section}{\numberline {1.1}Stworzenie uk\IeC {\l }adu pomiarowego}{1}}
\@writefile{lof}{\contentsline {figure}{\numberline {1.1}{\ignorespaces  Uk\IeC {\l }ad do pomiaru napi\IeC {\k e}cia i nat\IeC {\k e}\IeC {\.z}enia pr\IeC {\k a}du \relax }}{1}}
\@writefile{toc}{\contentsline {section}{\numberline {1.2}Pomiary}{2}}
\@writefile{toc}{\contentsline {section}{\numberline {1.3}Warto\IeC {\'s}ci pomiarowe oraz warto\IeC {\'s}ci spodziewane}{2}}
\@writefile{toc}{\contentsline {section}{\numberline {1.4}Wnioski}{2}}
\@writefile{toc}{\contentsline {chapter}{\numberline {2}Uk\IeC {\l }ad do po\IeC {\'s}redniego pomiaru rezystancji wykorzystujacy "rzeczywiste" przyrz\IeC {\k a}dy pomiarowe}{3}}
\@writefile{lof}{\addvspace {10\p@ }}
\@writefile{lot}{\addvspace {10\p@ }}
\@writefile{toc}{\contentsline {section}{\numberline {2.1}Stworzenie uk\IeC {\l }adu pomiarowego oraz ustawienie odpowiednich parametr\IeC {\'o}w}{3}}
\@writefile{toc}{\contentsline {section}{\numberline {2.2}Warto\IeC {\'s}ci pomiarowe oraz warto\IeC {\'s}ci spodziewane}{3}}
\@writefile{lot}{\contentsline {table}{\numberline {2.1}{\ignorespaces Warto\IeC {\'s}ci pomiarowe poszczeg\IeC {\'o}lnych metod\relax }}{3}}
\@writefile{lof}{\contentsline {figure}{\numberline {2.1}{\ignorespaces Pomiar metod\IeC {\k a} dok\IeC {\l }adnego napi\IeC {\k e}cia\relax }}{4}}
\@writefile{lof}{\contentsline {figure}{\numberline {2.2}{\ignorespaces Pomiar metod\IeC {\k a} dok\IeC {\l }adnego pr\IeC {\k a}du\relax }}{5}}
\@writefile{lof}{\contentsline {figure}{\numberline {2.3}{\ignorespaces Schemat zast\IeC {\k e}pczy\relax }}{5}}
\@writefile{toc}{\contentsline {section}{\numberline {2.3}Definicja b\IeC {\l }\IeC {\k e}du wzgl\IeC {\k e}dnego}{6}}
\@writefile{toc}{\contentsline {section}{\numberline {2.4}B\IeC {\l }\IeC {\k a}d wzgl\IeC {\k e}dny dla metowy dok\IeC {\l }adnego napi\IeC {\k e}cia}{6}}
\@writefile{toc}{\contentsline {section}{\numberline {2.5}B\IeC {\l }\IeC {\k a}d wzgl\IeC {\k e}dny dla metody dok\IeC {\l }adnego pr\IeC {\k a}du}{6}}
\@writefile{toc}{\contentsline {chapter}{\numberline {3}Pomiary z wykorzystaniem generatora i oscyloskopu}{7}}
\@writefile{lof}{\addvspace {10\p@ }}
\@writefile{lot}{\addvspace {10\p@ }}
\@writefile{toc}{\contentsline {section}{\numberline {3.1}Stworzenie uk\IeC {\l }adu pomiarowego oraz ustawienie odpowiednich parametr\IeC {\'o}w}{7}}
\@writefile{toc}{\contentsline {section}{\numberline {3.2}Dioda prostownica}{7}}
\@writefile{lof}{\contentsline {figure}{\numberline {3.1}{\ignorespaces Pomiar dla sta\IeC {\l }opr\IeC {\k a}dowego sprz\IeC {\k e}\IeC {\.z}enia oscyloskopu\relax }}{7}}
\@writefile{lof}{\contentsline {figure}{\numberline {3.2}{\ignorespaces Pomiar dla zmiennopr\IeC {\k a}dowego sprz\IeC {\k e}\IeC {\.z}enia oscyloskopu\relax }}{8}}
\@writefile{lof}{\contentsline {figure}{\numberline {3.3}{\ignorespaces Pomiar dla tr\IeC {\'o}jk\IeC {\k a}tnego przebiegu generatora\relax }}{8}}
\@writefile{toc}{\contentsline {chapter}{\numberline {4}Pomiary z wykorzystaniem charakterografu (Ploter Bode'go)}{9}}
\@writefile{lof}{\addvspace {10\p@ }}
\@writefile{lot}{\addvspace {10\p@ }}
\@writefile{toc}{\contentsline {section}{\numberline {4.1}Wykonanie odpowiednich pomiar\IeC {\'o}w dla uk\IeC {\l }adu z dzielnikiem napi\IeC {\k e}cia}{9}}
\@writefile{lof}{\contentsline {figure}{\numberline {4.1}{\ignorespaces Uk\IeC {\l }ad z dzielnikiem napi\IeC {\k e}cia\relax }}{9}}
\@writefile{lof}{\contentsline {figure}{\numberline {4.2}{\ignorespaces Pomiar dla uk\IeC {\l }adu z dzielnikiem napi\IeC {\k e}cia\relax }}{10}}
\@writefile{lof}{\contentsline {figure}{\numberline {4.3}{\ignorespaces Uk\IeC {\l }ad z dzielnikiem zbocznikowanym kondensatorem\relax }}{10}}
\@writefile{lof}{\contentsline {figure}{\numberline {4.4}{\ignorespaces Pomiar dla uk\IeC {\l }adu z dzielnikiem zbocznikowanym kondensatorem\relax }}{10}}
