\relax 
\@writefile{toc}{\contentsline {chapter}{\numberline {1}Scalony uk\IeC {\l }ad monostabilny}{1}}
\@writefile{lof}{\addvspace {10\p@ }}
\@writefile{lot}{\addvspace {10\p@ }}
\@writefile{lof}{\contentsline {figure}{\numberline {1.1}{\ignorespaces Uk\IeC {\l }ad pomiarowy\relax }}{1}}
\@writefile{toc}{\contentsline {section}{\numberline {1.1}100nF}{2}}
\@writefile{lof}{\contentsline {figure}{\numberline {1.2}{\ignorespaces R = \(10k\Omega \)\relax }}{2}}
\@writefile{lof}{\contentsline {figure}{\numberline {1.3}{\ignorespaces R = \(5k\Omega \)\relax }}{2}}
\@writefile{toc}{\contentsline {section}{\numberline {1.2}50nF}{3}}
\@writefile{lof}{\contentsline {figure}{\numberline {1.4}{\ignorespaces R = \(10k\Omega \)\relax }}{3}}
\@writefile{lof}{\contentsline {figure}{\numberline {1.5}{\ignorespaces R = \(5k\Omega \)\relax }}{3}}
\@writefile{toc}{\contentsline {section}{\numberline {1.3}10nF}{4}}
\@writefile{lof}{\contentsline {figure}{\numberline {1.6}{\ignorespaces R = \(10k\Omega \)\relax }}{4}}
\@writefile{lof}{\contentsline {figure}{\numberline {1.7}{\ignorespaces R = \(5k\Omega \)\relax }}{4}}
\@writefile{toc}{\contentsline {section}{\numberline {1.4}Wnioski}{5}}
\@writefile{toc}{\contentsline {chapter}{\numberline {2}Generator przebieg\IeC {\'o}w prostok\IeC {\k a}tnych}{6}}
\@writefile{lof}{\addvspace {10\p@ }}
\@writefile{lot}{\addvspace {10\p@ }}
\@writefile{toc}{\contentsline {section}{\numberline {2.1}Schemat uk\IeC {\l }adu generatora z\IeC {\l }ozonego z przerzutnik\IeC {\'o}w monostabilnych}{6}}
\@writefile{lof}{\contentsline {figure}{\numberline {2.1}{\ignorespaces Uk\IeC {\l }adu pomiarowy generatora z\IeC {\l }ozonego z przerzutnik\IeC {\'o}w monostabilnych\relax }}{6}}
\@writefile{lof}{\contentsline {figure}{\numberline {2.2}{\ignorespaces Pomiar uk\IeC {\l }adu generatora z\IeC {\l }ozonego z przerzutnik\IeC {\'o}w monostabilnych\relax }}{7}}
\@writefile{toc}{\contentsline {subsection}{\numberline {2.1.1}Przebieg we/wy dla 10 razy zmniejszonego \(C_{1}\)}{7}}
\@writefile{toc}{\contentsline {subsection}{\numberline {2.1.2}Przebieg we/wy dla 10 razy zmniejszonego \(R_{1}\)}{8}}
\@writefile{toc}{\contentsline {subsection}{\numberline {2.1.3}Wnioski}{8}}
\@writefile{toc}{\contentsline {subsection}{\numberline {2.1.4}Przebieg we/wy dla 10 razy zmniejszonego \(C_{2}\)}{9}}
\@writefile{toc}{\contentsline {subsection}{\numberline {2.1.5}Przebieg we/wy dla 10 razy zmniejszonego \(R_{1}\)}{9}}
\@writefile{toc}{\contentsline {subsection}{\numberline {2.1.6}Wnioski}{10}}
\@writefile{toc}{\contentsline {section}{\numberline {2.2}Schemat uk\IeC {\l }adu generatora fali prostok\IeC {\k a}tnych z uyciem bramek NOT}{10}}
\@writefile{lof}{\contentsline {figure}{\numberline {2.3}{\ignorespaces Uk\IeC {\l }adu pomiarowy generator fali przostok\IeC {\k a}tnych\relax }}{10}}
\@writefile{lof}{\contentsline {figure}{\numberline {2.4}{\ignorespaces Pomiar uk\IeC {\l }adu generator fali prostok\IeC {\k a}tnych\relax }}{11}}
\@writefile{toc}{\contentsline {section}{\numberline {2.3}Schemat uk\IeC {\l }adu przerzutnika astabilnego z wykorzystaniem modelu uk\IeC {\l }adu 555}{12}}
\@writefile{lof}{\contentsline {figure}{\numberline {2.5}{\ignorespaces Uk\IeC {\l }adu pomiarowy przerzutnika astabilnego\relax }}{12}}
\@writefile{lof}{\contentsline {figure}{\numberline {2.6}{\ignorespaces Pomiar uk\IeC {\l }adu przerzutnika astabilnego\relax }}{12}}
\@writefile{toc}{\contentsline {subsection}{\numberline {2.3.1}Wnioski}{13}}
