\relax 
\@writefile{toc}{\contentsline {chapter}{\numberline {1}Wzmacniacz odwracaj\IeC {\k a}cy}{1}}
\@writefile{lof}{\addvspace {10\p@ }}
\@writefile{lot}{\addvspace {10\p@ }}
\@writefile{lof}{\contentsline {figure}{\numberline {1.1}{\ignorespaces Schemat wzmacniacza odwracaj\IeC {\k a}cego\relax }}{1}}
\@writefile{lot}{\contentsline {table}{\numberline {1.1}{\ignorespaces Tabelka z pomiarami na wej\IeC {\'s}ciu i wyj\IeC {\'s}ciu\relax }}{1}}
\@writefile{toc}{\contentsline {section}{\numberline {1.1}Wzmocnienie napi\IeC {\k e}ciowe \(10[\frac  {V}{V}]\)}{2}}
\@writefile{lof}{\contentsline {figure}{\numberline {1.2}{\ignorespaces Schemat uk\IeC {\l }adu do pomiaru wzmacniacza odwracaj\IeC {\k a}cego o wzmocnieniu napi\IeC {\k e}ciowym \(10[\frac  {V}{V}]\)\relax }}{2}}
\@writefile{lot}{\contentsline {table}{\numberline {1.2}{\ignorespaces Tabelka z pomiarami na wej\IeC {\'s}ciu i wyj\IeC {\'s}ciu\relax }}{2}}
\@writefile{toc}{\contentsline {section}{\numberline {1.2}Wzmocnienie napi\IeC {\k e}ciowe \(0.1[\frac  {V}{V}]\)}{3}}
\@writefile{lof}{\contentsline {figure}{\numberline {1.3}{\ignorespaces Schemat uk\IeC {\l }adu do pomiaru wzmacniacza odwracaj\IeC {\k a}cego o wzmocnieniu napi\IeC {\k e}ciowym \(0.1[\frac  {V}{V}]\)\relax }}{3}}
\@writefile{lot}{\contentsline {table}{\numberline {1.3}{\ignorespaces Tabelka z pomiarami na wej\IeC {\'s}ciu i wyj\IeC {\'s}ciu\relax }}{3}}
\@writefile{lof}{\contentsline {figure}{\numberline {1.4}{\ignorespaces Uk\IeC {\l }ad do zbadania rezystancji wej\IeC {\'s}ciowej wzmacniacza\relax }}{4}}
\@writefile{toc}{\contentsline {section}{\numberline {1.3}Wnioski}{4}}
\@writefile{toc}{\contentsline {chapter}{\numberline {2}Wzmacniacz nieodwracaj\IeC {\k a}cy}{5}}
\@writefile{lof}{\addvspace {10\p@ }}
\@writefile{lot}{\addvspace {10\p@ }}
\@writefile{lof}{\contentsline {figure}{\numberline {2.1}{\ignorespaces Schemat uk\IeC {\l }adu wzmacniacza nieodwracaj\IeC {\k a}cego\relax }}{5}}
\@writefile{lof}{\contentsline {figure}{\numberline {2.2}{\ignorespaces Schemat uk\IeC {\l }adu do pomiaru wzmacniacza nieodwracaj\IeC {\k a}cego o wzmocnieniu napi\IeC {\k e}ciowym \(10[\frac  {V}{V}]\)\relax }}{6}}
\@writefile{lot}{\contentsline {table}{\numberline {2.1}{\ignorespaces Tabelka z pomiarami na wej\IeC {\'s}ciu i wyj\IeC {\'s}ciu\relax }}{6}}
\@writefile{lof}{\contentsline {figure}{\numberline {2.3}{\ignorespaces Schemat uk\IeC {\l }adu do znalezienia napi\IeC {\k e}cia r\IeC {\'o}wnego 1V\relax }}{7}}
\@writefile{toc}{\contentsline {section}{\numberline {2.1}Wnioski}{7}}
\@writefile{toc}{\contentsline {chapter}{\numberline {3}Wzmacniacz r\IeC {\'o}\IeC {\.z}nicowy, sumator}{8}}
\@writefile{lof}{\addvspace {10\p@ }}
\@writefile{lot}{\addvspace {10\p@ }}
\@writefile{lof}{\contentsline {figure}{\numberline {3.1}{\ignorespaces Uk\IeC {\l }ad do pomiaru wzmacniacza r\IeC {\'o}\IeC {\.z}nicowego\relax }}{8}}
\@writefile{lof}{\contentsline {figure}{\numberline {3.2}{\ignorespaces Uk\IeC {\l }ad do pomiaru sumatora\relax }}{9}}
\@writefile{toc}{\contentsline {section}{\numberline {3.1}Wnioski}{9}}
\@writefile{toc}{\contentsline {subsection}{\numberline {3.1.1}Wniosek z oblicze\IeC {\'n}}{9}}
\@writefile{toc}{\contentsline {subsection}{\numberline {3.1.2}Wniosek z pomiaru}{9}}
\@writefile{lof}{\contentsline {figure}{\numberline {3.3}{\ignorespaces Wniosek z pomiaru\relax }}{9}}
\@writefile{toc}{\contentsline {subsection}{\numberline {3.1.3}Wnioski og\IeC {\'o}lne}{10}}
\@writefile{toc}{\contentsline {chapter}{\numberline {4}Wzmacniacz ca\IeC {\l }kuj\IeC {\k a}cy}{11}}
\@writefile{lof}{\addvspace {10\p@ }}
\@writefile{lot}{\addvspace {10\p@ }}
\@writefile{lof}{\contentsline {figure}{\numberline {4.1}{\ignorespaces Schemat uk\IeC {\l }adu wzmacniacza ca\IeC {\l }kuj\IeC {\k a}cego\relax }}{11}}
\@writefile{lof}{\contentsline {figure}{\numberline {4.2}{\ignorespaces Charakterystyka wzmacniacza ca\IeC {\l }kuj\IeC {\k a}cego o cz\IeC {\k e}stotliwo\IeC {\'s}ci 1kHz\relax }}{11}}
\@writefile{toc}{\contentsline {section}{\numberline {4.1}Wnioski}{11}}
\@writefile{toc}{\contentsline {chapter}{\numberline {5}Wzmacniacz r\IeC {\'o}\IeC {\.z}niczkuj\IeC {\k a}cy}{12}}
\@writefile{lof}{\addvspace {10\p@ }}
\@writefile{lot}{\addvspace {10\p@ }}
\@writefile{lof}{\contentsline {figure}{\numberline {5.1}{\ignorespaces Schemat uk\IeC {\l }adu wzmacniacza r\IeC {\'o}\IeC {\.z}niczuj\IeC {\k a}cego\relax }}{12}}
\@writefile{lof}{\contentsline {figure}{\numberline {5.2}{\ignorespaces Charakterystyka wzmacniacza r\IeC {\'o}\IeC {\.z}niczuj\IeC {\k a}cego\relax }}{12}}
\@writefile{toc}{\contentsline {section}{\numberline {5.1}Wnioski}{13}}
\@writefile{toc}{\contentsline {chapter}{\numberline {6}Przesuwnik fazowy}{14}}
\@writefile{lof}{\addvspace {10\p@ }}
\@writefile{lot}{\addvspace {10\p@ }}
\@writefile{lof}{\contentsline {figure}{\numberline {6.1}{\ignorespaces Schemat uk\IeC {\l }adu przesuwnika fazowego\relax }}{14}}
\@writefile{lof}{\contentsline {figure}{\numberline {6.2}{\ignorespaces Charakterystyka przesuwnika fazowego\relax }}{14}}
