PWD /Users/baransu/Documents/Studia/III semestr (2017-2018)/PEITC/cwiczenie_7
INPUT /usr/local/texlive/2017/texmf.cnf
INPUT /usr/local/texlive/2017/texmf-dist/web2c/texmf.cnf
INPUT /usr/local/texlive/2017/texmf-var/web2c/pdftex/pdflatex.fmt
INPUT /Users/baransu/Documents/Studia/III semestr (2017-2018)/PEITC/cwiczenie_7/main.tex
OUTPUT main.log
INPUT /usr/local/texlive/2017/texmf-dist/tex/latex/base/report.cls
INPUT /usr/local/texlive/2017/texmf-dist/tex/latex/base/report.cls
INPUT /usr/local/texlive/2017/texmf-dist/tex/latex/base/size10.clo
INPUT /usr/local/texlive/2017/texmf-dist/tex/latex/base/size10.clo
INPUT /usr/local/texlive/2017/texmf-dist/tex/latex/pgf/frontendlayer/tikz.sty
INPUT /usr/local/texlive/2017/texmf-dist/tex/latex/pgf/frontendlayer/tikz.sty
INPUT /usr/local/texlive/2017/texmf-dist/tex/latex/pgf/basiclayer/pgf.sty
INPUT /usr/local/texlive/2017/texmf-dist/tex/latex/pgf/basiclayer/pgf.sty
INPUT /usr/local/texlive/2017/texmf-dist/tex/latex/pgf/utilities/pgfrcs.sty
INPUT /usr/local/texlive/2017/texmf-dist/tex/latex/pgf/utilities/pgfrcs.sty
INPUT /usr/local/texlive/2017/texmf-dist/tex/generic/pgf/utilities/pgfutil-common.tex
INPUT /usr/local/texlive/2017/texmf-dist/tex/generic/pgf/utilities/pgfutil-common-lists.tex
INPUT /usr/local/texlive/2017/texmf-dist/tex/generic/pgf/utilities/pgfutil-latex.def
INPUT /usr/local/texlive/2017/texmf-dist/tex/latex/ms/everyshi.sty
INPUT /usr/local/texlive/2017/texmf-dist/tex/latex/ms/everyshi.sty
INPUT /usr/local/texlive/2017/texmf-dist/tex/generic/pgf/utilities/pgfrcs.code.tex
INPUT /usr/local/texlive/2017/texmf-dist/tex/generic/pgf/utilities/pgfrcs.code.tex
INPUT /usr/local/texlive/2017/texmf-dist/tex/latex/pgf/basiclayer/pgfcore.sty
INPUT /usr/local/texlive/2017/texmf-dist/tex/latex/pgf/basiclayer/pgfcore.sty
INPUT /usr/local/texlive/2017/texmf-dist/tex/latex/graphics/graphicx.sty
INPUT /usr/local/texlive/2017/texmf-dist/tex/latex/graphics/graphicx.sty
INPUT /usr/local/texlive/2017/texmf-dist/tex/latex/graphics/keyval.sty
INPUT /usr/local/texlive/2017/texmf-dist/tex/latex/graphics/keyval.sty
INPUT /usr/local/texlive/2017/texmf-dist/tex/latex/graphics/graphics.sty
INPUT /usr/local/texlive/2017/texmf-dist/tex/latex/graphics/graphics.sty
INPUT /usr/local/texlive/2017/texmf-dist/tex/latex/graphics/trig.sty
INPUT /usr/local/texlive/2017/texmf-dist/tex/latex/graphics/trig.sty
INPUT /usr/local/texlive/2017/texmf-dist/tex/latex/graphics-cfg/graphics.cfg
INPUT /usr/local/texlive/2017/texmf-dist/tex/latex/graphics-cfg/graphics.cfg
INPUT /usr/local/texlive/2017/texmf-dist/tex/latex/graphics-def/pdftex.def
INPUT /usr/local/texlive/2017/texmf-dist/tex/latex/graphics-def/pdftex.def
INPUT /usr/local/texlive/2017/texmf-dist/tex/generic/oberdiek/infwarerr.sty
INPUT /usr/local/texlive/2017/texmf-dist/tex/generic/oberdiek/infwarerr.sty
INPUT /usr/local/texlive/2017/texmf-dist/tex/generic/oberdiek/ltxcmds.sty
INPUT /usr/local/texlive/2017/texmf-dist/tex/generic/oberdiek/ltxcmds.sty
INPUT /usr/local/texlive/2017/texmf-dist/tex/latex/pgf/systemlayer/pgfsys.sty
INPUT /usr/local/texlive/2017/texmf-dist/tex/latex/pgf/systemlayer/pgfsys.sty
INPUT /usr/local/texlive/2017/texmf-dist/tex/generic/pgf/systemlayer/pgfsys.code.tex
INPUT /usr/local/texlive/2017/texmf-dist/tex/generic/pgf/systemlayer/pgfsys.code.tex
INPUT /usr/local/texlive/2017/texmf-dist/tex/generic/pgf/utilities/pgfkeys.code.tex
INPUT /usr/local/texlive/2017/texmf-dist/tex/generic/pgf/utilities/pgfkeysfiltered.code.tex
INPUT /usr/local/texlive/2017/texmf-dist/tex/generic/pgf/systemlayer/pgf.cfg
INPUT /usr/local/texlive/2017/texmf-dist/tex/generic/pgf/systemlayer/pgfsys-pdftex.def
INPUT /usr/local/texlive/2017/texmf-dist/tex/generic/pgf/systemlayer/pgfsys-pdftex.def
INPUT /usr/local/texlive/2017/texmf-dist/tex/generic/pgf/systemlayer/pgfsys-common-pdf.def
INPUT /usr/local/texlive/2017/texmf-dist/tex/generic/pgf/systemlayer/pgfsyssoftpath.code.tex
INPUT /usr/local/texlive/2017/texmf-dist/tex/generic/pgf/systemlayer/pgfsyssoftpath.code.tex
INPUT /usr/local/texlive/2017/texmf-dist/tex/generic/pgf/systemlayer/pgfsysprotocol.code.tex
INPUT /usr/local/texlive/2017/texmf-dist/tex/generic/pgf/systemlayer/pgfsysprotocol.code.tex
INPUT /usr/local/texlive/2017/texmf-dist/tex/latex/xcolor/xcolor.sty
INPUT /usr/local/texlive/2017/texmf-dist/tex/latex/xcolor/xcolor.sty
INPUT /usr/local/texlive/2017/texmf-dist/tex/latex/graphics-cfg/color.cfg
INPUT /usr/local/texlive/2017/texmf-dist/tex/latex/graphics-cfg/color.cfg
INPUT /usr/local/texlive/2017/texmf-dist/tex/generic/pgf/basiclayer/pgfcore.code.tex
INPUT /usr/local/texlive/2017/texmf-dist/tex/generic/pgf/basiclayer/pgfcore.code.tex
INPUT /usr/local/texlive/2017/texmf-dist/tex/generic/pgf/math/pgfmath.code.tex
INPUT /usr/local/texlive/2017/texmf-dist/tex/generic/pgf/math/pgfmathcalc.code.tex
INPUT /usr/local/texlive/2017/texmf-dist/tex/generic/pgf/math/pgfmathutil.code.tex
INPUT /usr/local/texlive/2017/texmf-dist/tex/generic/pgf/math/pgfmathparser.code.tex
INPUT /usr/local/texlive/2017/texmf-dist/tex/generic/pgf/math/pgfmathfunctions.code.tex
INPUT /usr/local/texlive/2017/texmf-dist/tex/generic/pgf/math/pgfmathfunctions.basic.code.tex
INPUT /usr/local/texlive/2017/texmf-dist/tex/generic/pgf/math/pgfmathfunctions.trigonometric.code.tex
INPUT /usr/local/texlive/2017/texmf-dist/tex/generic/pgf/math/pgfmathfunctions.random.code.tex
INPUT /usr/local/texlive/2017/texmf-dist/tex/generic/pgf/math/pgfmathfunctions.comparison.code.tex
INPUT /usr/local/texlive/2017/texmf-dist/tex/generic/pgf/math/pgfmathfunctions.base.code.tex
INPUT /usr/local/texlive/2017/texmf-dist/tex/generic/pgf/math/pgfmathfunctions.round.code.tex
INPUT /usr/local/texlive/2017/texmf-dist/tex/generic/pgf/math/pgfmathfunctions.misc.code.tex
INPUT /usr/local/texlive/2017/texmf-dist/tex/generic/pgf/math/pgfmathfunctions.integerarithmetics.code.tex
INPUT /usr/local/texlive/2017/texmf-dist/tex/generic/pgf/math/pgfmathfloat.code.tex
INPUT /usr/local/texlive/2017/texmf-dist/tex/generic/pgf/basiclayer/pgfcorepoints.code.tex
INPUT /usr/local/texlive/2017/texmf-dist/tex/generic/pgf/basiclayer/pgfcorepathconstruct.code.tex
INPUT /usr/local/texlive/2017/texmf-dist/tex/generic/pgf/basiclayer/pgfcorepathusage.code.tex
INPUT /usr/local/texlive/2017/texmf-dist/tex/generic/pgf/basiclayer/pgfcorescopes.code.tex
INPUT /usr/local/texlive/2017/texmf-dist/tex/generic/pgf/basiclayer/pgfcoregraphicstate.code.tex
INPUT /usr/local/texlive/2017/texmf-dist/tex/generic/pgf/basiclayer/pgfcoretransformations.code.tex
INPUT /usr/local/texlive/2017/texmf-dist/tex/generic/pgf/basiclayer/pgfcorequick.code.tex
INPUT /usr/local/texlive/2017/texmf-dist/tex/generic/pgf/basiclayer/pgfcoreobjects.code.tex
INPUT /usr/local/texlive/2017/texmf-dist/tex/generic/pgf/basiclayer/pgfcorepathprocessing.code.tex
INPUT /usr/local/texlive/2017/texmf-dist/tex/generic/pgf/basiclayer/pgfcorearrows.code.tex
INPUT /usr/local/texlive/2017/texmf-dist/tex/generic/pgf/basiclayer/pgfcoreshade.code.tex
INPUT /usr/local/texlive/2017/texmf-dist/tex/generic/pgf/basiclayer/pgfcoreimage.code.tex
INPUT /usr/local/texlive/2017/texmf-dist/tex/generic/pgf/basiclayer/pgfcoreexternal.code.tex
INPUT /usr/local/texlive/2017/texmf-dist/tex/generic/pgf/basiclayer/pgfcorelayers.code.tex
INPUT /usr/local/texlive/2017/texmf-dist/tex/generic/pgf/basiclayer/pgfcoretransparency.code.tex
INPUT /usr/local/texlive/2017/texmf-dist/tex/generic/pgf/basiclayer/pgfcorepatterns.code.tex
INPUT /usr/local/texlive/2017/texmf-dist/tex/generic/pgf/modules/pgfmoduleshapes.code.tex
INPUT /usr/local/texlive/2017/texmf-dist/tex/generic/pgf/modules/pgfmoduleplot.code.tex
INPUT /usr/local/texlive/2017/texmf-dist/tex/latex/pgf/compatibility/pgfcomp-version-0-65.sty
INPUT /usr/local/texlive/2017/texmf-dist/tex/latex/pgf/compatibility/pgfcomp-version-0-65.sty
INPUT /usr/local/texlive/2017/texmf-dist/tex/latex/pgf/compatibility/pgfcomp-version-1-18.sty
INPUT /usr/local/texlive/2017/texmf-dist/tex/latex/pgf/compatibility/pgfcomp-version-1-18.sty
INPUT /usr/local/texlive/2017/texmf-dist/tex/latex/pgf/utilities/pgffor.sty
INPUT /usr/local/texlive/2017/texmf-dist/tex/latex/pgf/utilities/pgffor.sty
INPUT /usr/local/texlive/2017/texmf-dist/tex/latex/pgf/utilities/pgfkeys.sty
INPUT /usr/local/texlive/2017/texmf-dist/tex/latex/pgf/utilities/pgfkeys.sty
INPUT /usr/local/texlive/2017/texmf-dist/tex/generic/pgf/utilities/pgfkeys.code.tex
INPUT /usr/local/texlive/2017/texmf-dist/tex/generic/pgf/utilities/pgfkeys.code.tex
INPUT /usr/local/texlive/2017/texmf-dist/tex/latex/pgf/math/pgfmath.sty
INPUT /usr/local/texlive/2017/texmf-dist/tex/latex/pgf/math/pgfmath.sty
INPUT /usr/local/texlive/2017/texmf-dist/tex/generic/pgf/math/pgfmath.code.tex
INPUT /usr/local/texlive/2017/texmf-dist/tex/generic/pgf/math/pgfmath.code.tex
INPUT /usr/local/texlive/2017/texmf-dist/tex/generic/pgf/utilities/pgffor.code.tex
INPUT /usr/local/texlive/2017/texmf-dist/tex/generic/pgf/utilities/pgffor.code.tex
INPUT /usr/local/texlive/2017/texmf-dist/tex/generic/pgf/math/pgfmath.code.tex
INPUT /usr/local/texlive/2017/texmf-dist/tex/generic/pgf/frontendlayer/tikz/tikz.code.tex
INPUT /usr/local/texlive/2017/texmf-dist/tex/generic/pgf/frontendlayer/tikz/tikz.code.tex
INPUT /usr/local/texlive/2017/texmf-dist/tex/generic/pgf/libraries/pgflibraryplothandlers.code.tex
INPUT /usr/local/texlive/2017/texmf-dist/tex/generic/pgf/libraries/pgflibraryplothandlers.code.tex
INPUT /usr/local/texlive/2017/texmf-dist/tex/generic/pgf/modules/pgfmodulematrix.code.tex
INPUT /usr/local/texlive/2017/texmf-dist/tex/generic/pgf/frontendlayer/tikz/libraries/tikzlibrarytopaths.code.tex
INPUT /usr/local/texlive/2017/texmf-dist/tex/generic/pgf/frontendlayer/tikz/libraries/tikzlibrarytopaths.code.tex
INPUT /usr/local/texlive/2017/texmf-dist/tex/latex/tkz-tab/tkz-tab.sty
INPUT /usr/local/texlive/2017/texmf-dist/tex/latex/tkz-tab/tkz-tab.sty
INPUT /usr/local/texlive/2017/texmf-dist/tex/latex/etex-pkg/etex.sty
INPUT /usr/local/texlive/2017/texmf-dist/tex/latex/etex-pkg/etex.sty
INPUT /usr/local/texlive/2017/texmf-dist/tex/latex/base/ifthen.sty
INPUT /usr/local/texlive/2017/texmf-dist/tex/latex/base/ifthen.sty
INPUT /usr/local/texlive/2017/texmf-dist/tex/latex/xkeyval/xkeyval.sty
INPUT /usr/local/texlive/2017/texmf-dist/tex/latex/xkeyval/xkeyval.sty
INPUT /usr/local/texlive/2017/texmf-dist/tex/generic/xkeyval/xkeyval.tex
INPUT /usr/local/texlive/2017/texmf-dist/tex/generic/xkeyval/xkvutils.tex
INPUT /usr/local/texlive/2017/texmf-dist/tex/generic/pgf/frontendlayer/tikz/libraries/tikzlibraryarrows.code.tex
INPUT /usr/local/texlive/2017/texmf-dist/tex/generic/pgf/frontendlayer/tikz/libraries/tikzlibraryarrows.code.tex
INPUT /usr/local/texlive/2017/texmf-dist/tex/generic/pgf/libraries/pgflibraryarrows.code.tex
INPUT /usr/local/texlive/2017/texmf-dist/tex/generic/pgf/libraries/pgflibraryarrows.code.tex
INPUT /usr/local/texlive/2017/texmf-dist/tex/generic/pgf/frontendlayer/tikz/libraries/tikzlibrarypatterns.code.tex
INPUT /usr/local/texlive/2017/texmf-dist/tex/generic/pgf/frontendlayer/tikz/libraries/tikzlibrarypatterns.code.tex
INPUT /usr/local/texlive/2017/texmf-dist/tex/generic/pgf/libraries/pgflibrarypatterns.code.tex
INPUT /usr/local/texlive/2017/texmf-dist/tex/generic/pgf/libraries/pgflibrarypatterns.code.tex
INPUT /usr/local/texlive/2017/texmf-dist/tex/latex/amsmath/amsmath.sty
INPUT /usr/local/texlive/2017/texmf-dist/tex/latex/amsmath/amsmath.sty
INPUT /usr/local/texlive/2017/texmf-dist/tex/latex/amsmath/amstext.sty
INPUT /usr/local/texlive/2017/texmf-dist/tex/latex/amsmath/amstext.sty
INPUT /usr/local/texlive/2017/texmf-dist/tex/latex/amsmath/amsgen.sty
INPUT /usr/local/texlive/2017/texmf-dist/tex/latex/amsmath/amsgen.sty
INPUT /usr/local/texlive/2017/texmf-dist/tex/latex/amsmath/amsbsy.sty
INPUT /usr/local/texlive/2017/texmf-dist/tex/latex/amsmath/amsbsy.sty
INPUT /usr/local/texlive/2017/texmf-dist/tex/latex/amsmath/amsopn.sty
INPUT /usr/local/texlive/2017/texmf-dist/tex/latex/amsmath/amsopn.sty
INPUT /usr/local/texlive/2017/texmf-dist/tex/latex/pgfplots/pgfplots.sty
INPUT /usr/local/texlive/2017/texmf-dist/tex/latex/pgfplots/pgfplots.sty
INPUT /usr/local/texlive/2017/texmf-dist/tex/generic/pgfplots/pgfplots.revision.tex
INPUT /usr/local/texlive/2017/texmf-dist/tex/generic/pgfplots/pgfplots.revision.tex
INPUT /usr/local/texlive/2017/texmf-dist/tex/generic/pgf/systemlayer/pgfsys-luatex.def
INPUT /usr/local/texlive/2017/texmf-dist/tex/generic/pgfplots/pgfplots.code.tex
INPUT /usr/local/texlive/2017/texmf-dist/tex/generic/pgfplots/pgfplotscore.code.tex
INPUT /usr/local/texlive/2017/texmf-dist/tex/generic/pgfplots/sys/pgfplotssysgeneric.code.tex
INPUT /usr/local/texlive/2017/texmf-dist/tex/generic/pgfplots/libs/pgfplotslibrary.code.tex
INPUT /usr/local/texlive/2017/texmf-dist/tex/generic/pgfplots/oldpgfcompatib/pgfplotsoldpgfsupp_loader.code.tex
INPUT /usr/local/texlive/2017/texmf-dist/tex/generic/pgf/libraries/pgflibraryfpu.code.tex
INPUT /usr/local/texlive/2017/texmf-dist/tex/generic/pgf/libraries/pgflibraryfpu.code.tex
INPUT /usr/local/texlive/2017/texmf-dist/tex/generic/pgf/libraries/pgflibraryfpu.code.tex
INPUT /usr/local/texlive/2017/texmf-dist/tex/generic/pgfplots/oldpgfcompatib/pgfplotsoldpgfsupp_pgflibraryfpu.code.tex
INPUT /usr/local/texlive/2017/texmf-dist/tex/generic/pgfplots/oldpgfcompatib/pgfplotsoldpgfsupp_pgfmathfloat.code.tex
INPUT /usr/local/texlive/2017/texmf-dist/tex/generic/pgfplots/util/pgfplotsutil.code.tex
INPUT /usr/local/texlive/2017/texmf-dist/tex/generic/pgfplots/liststructure/pgfplotsliststructure.code.tex
INPUT /usr/local/texlive/2017/texmf-dist/tex/generic/pgfplots/liststructure/pgfplotsliststructureext.code.tex
INPUT /usr/local/texlive/2017/texmf-dist/tex/generic/pgfplots/liststructure/pgfplotsarray.code.tex
INPUT /usr/local/texlive/2017/texmf-dist/tex/generic/pgfplots/liststructure/pgfplotsmatrix.code.tex
INPUT /usr/local/texlive/2017/texmf-dist/tex/generic/pgfplots/numtable/pgfplotstableshared.code.tex
INPUT /usr/local/texlive/2017/texmf-dist/tex/generic/pgfplots/liststructure/pgfplotsdeque.code.tex
INPUT /usr/local/texlive/2017/texmf-dist/tex/generic/pgfplots/util/pgfplotsbinary.code.tex
INPUT /usr/local/texlive/2017/texmf-dist/tex/generic/pgfplots/util/pgfplotsbinary.data.code.tex
INPUT /usr/local/texlive/2017/texmf-dist/tex/generic/pgfplots/util/pgfplotsutil.verb.code.tex
INPUT /usr/local/texlive/2017/texmf-dist/tex/generic/pgfplots/libs/pgflibrarypgfplots.surfshading.code.tex
INPUT /usr/local/texlive/2017/texmf-dist/tex/generic/pgfplots/sys/pgflibrarypgfplots.surfshading.pgfsys-pdftex.def
INPUT /usr/local/texlive/2017/texmf-dist/tex/generic/pgfplots/sys/pgflibrarypgfplots.surfshading.pgfsys-pdftex.def
INPUT /usr/local/texlive/2017/texmf-dist/tex/generic/pgfplots/util/pgfplotscolormap.code.tex
INPUT /usr/local/texlive/2017/texmf-dist/tex/generic/pgfplots/util/pgfplotscolor.code.tex
INPUT /usr/local/texlive/2017/texmf-dist/tex/generic/pgfplots/pgfplotsstackedplots.code.tex
INPUT /usr/local/texlive/2017/texmf-dist/tex/generic/pgfplots/pgfplotsplothandlers.code.tex
INPUT /usr/local/texlive/2017/texmf-dist/tex/generic/pgfplots/pgfplotsmeshplothandler.code.tex
INPUT /usr/local/texlive/2017/texmf-dist/tex/generic/pgfplots/pgfplotsmeshplotimage.code.tex
INPUT /usr/local/texlive/2017/texmf-dist/tex/generic/pgfplots/pgfplots.scaling.code.tex
INPUT /usr/local/texlive/2017/texmf-dist/tex/generic/pgfplots/pgfplotscoordprocessing.code.tex
INPUT /usr/local/texlive/2017/texmf-dist/tex/generic/pgfplots/pgfplots.errorbars.code.tex
INPUT /usr/local/texlive/2017/texmf-dist/tex/generic/pgfplots/pgfplots.markers.code.tex
INPUT /usr/local/texlive/2017/texmf-dist/tex/generic/pgfplots/pgfplotsticks.code.tex
INPUT /usr/local/texlive/2017/texmf-dist/tex/generic/pgfplots/pgfplots.paths.code.tex
INPUT /usr/local/texlive/2017/texmf-dist/tex/generic/pgf/frontendlayer/tikz/libraries/tikzlibrarydecorations.code.tex
INPUT /usr/local/texlive/2017/texmf-dist/tex/generic/pgf/frontendlayer/tikz/libraries/tikzlibrarydecorations.code.tex
INPUT /usr/local/texlive/2017/texmf-dist/tex/generic/pgf/modules/pgfmoduledecorations.code.tex
INPUT /usr/local/texlive/2017/texmf-dist/tex/generic/pgf/frontendlayer/tikz/libraries/tikzlibrarydecorations.pathmorphing.code.tex
INPUT /usr/local/texlive/2017/texmf-dist/tex/generic/pgf/frontendlayer/tikz/libraries/tikzlibrarydecorations.pathmorphing.code.tex
INPUT /usr/local/texlive/2017/texmf-dist/tex/generic/pgf/libraries/decorations/pgflibrarydecorations.pathmorphing.code.tex
INPUT /usr/local/texlive/2017/texmf-dist/tex/generic/pgf/libraries/decorations/pgflibrarydecorations.pathmorphing.code.tex
INPUT /usr/local/texlive/2017/texmf-dist/tex/generic/pgf/frontendlayer/tikz/libraries/tikzlibrarydecorations.pathreplacing.code.tex
INPUT /usr/local/texlive/2017/texmf-dist/tex/generic/pgf/frontendlayer/tikz/libraries/tikzlibrarydecorations.pathreplacing.code.tex
INPUT /usr/local/texlive/2017/texmf-dist/tex/generic/pgf/libraries/decorations/pgflibrarydecorations.pathreplacing.code.tex
INPUT /usr/local/texlive/2017/texmf-dist/tex/generic/pgf/libraries/decorations/pgflibrarydecorations.pathreplacing.code.tex
INPUT /usr/local/texlive/2017/texmf-dist/tex/generic/pgf/frontendlayer/tikz/libraries/tikzlibraryplotmarks.code.tex
INPUT /usr/local/texlive/2017/texmf-dist/tex/generic/pgf/frontendlayer/tikz/libraries/tikzlibraryplotmarks.code.tex
INPUT /usr/local/texlive/2017/texmf-dist/tex/generic/pgf/libraries/pgflibraryplotmarks.code.tex
INPUT /usr/local/texlive/2017/texmf-dist/tex/generic/pgf/libraries/pgflibraryplotmarks.code.tex
INPUT /usr/local/texlive/2017/texmf-dist/tex/latex/polski/polski.sty
INPUT /usr/local/texlive/2017/texmf-dist/tex/latex/polski/polski.sty
INPUT /usr/local/texlive/2017/texmf-dist/tex/latex/polski/ot4cmr.fd
INPUT /usr/local/texlive/2017/texmf-dist/tex/latex/base/ot4enc.def
INPUT /usr/local/texlive/2017/texmf-dist/tex/latex/polski/ot4cmr.fd
INPUT /usr/local/texlive/2017/texmf-dist/tex/latex/polski/ot4cmr.fd
INPUT /usr/local/texlive/2017/texmf-dist/fonts/map/fontname/texfonts.map
INPUT /usr/local/texlive/2017/texmf-dist/fonts/tfm/public/pl/plr10.tfm
INPUT /usr/local/texlive/2017/texmf-dist/tex/latex/gnuplottex/gnuplottex.sty
INPUT /usr/local/texlive/2017/texmf-dist/tex/latex/gnuplottex/gnuplottex.sty
INPUT /usr/local/texlive/2017/texmf-dist/tex/latex/moreverb/moreverb.sty
INPUT /usr/local/texlive/2017/texmf-dist/tex/latex/moreverb/moreverb.sty
INPUT /usr/local/texlive/2017/texmf-dist/tex/latex/tools/verbatim.sty
INPUT /usr/local/texlive/2017/texmf-dist/tex/latex/tools/verbatim.sty
INPUT /usr/local/texlive/2017/texmf-dist/tex/generic/oberdiek/catchfile.sty
INPUT /usr/local/texlive/2017/texmf-dist/tex/generic/oberdiek/catchfile.sty
INPUT /usr/local/texlive/2017/texmf-dist/tex/generic/oberdiek/etexcmds.sty
INPUT /usr/local/texlive/2017/texmf-dist/tex/generic/oberdiek/etexcmds.sty
INPUT /usr/local/texlive/2017/texmf-dist/tex/generic/oberdiek/ifluatex.sty
INPUT /usr/local/texlive/2017/texmf-dist/tex/generic/oberdiek/ifluatex.sty
INPUT /usr/local/texlive/2017/texmf-dist/tex/latex/base/fontenc.sty
INPUT /usr/local/texlive/2017/texmf-dist/tex/latex/base/fontenc.sty
INPUT /usr/local/texlive/2017/texmf-dist/tex/latex/base/t1enc.def
INPUT /usr/local/texlive/2017/texmf-dist/tex/latex/base/t1enc.def
INPUT /usr/local/texlive/2017/texmf-dist/fonts/tfm/jknappen/ec/ecrm1000.tfm
INPUT /usr/local/texlive/2017/texmf-dist/tex/latex/caption/caption.sty
INPUT /usr/local/texlive/2017/texmf-dist/tex/latex/caption/caption.sty
INPUT /usr/local/texlive/2017/texmf-dist/tex/latex/caption/caption3.sty
INPUT /usr/local/texlive/2017/texmf-dist/tex/latex/caption/caption3.sty
INPUT /usr/local/texlive/2017/texmf-dist/tex/latex/caption/subcaption.sty
INPUT /usr/local/texlive/2017/texmf-dist/tex/latex/caption/subcaption.sty
INPUT /usr/local/texlive/2017/texmf-dist/tex/latex/float/float.sty
INPUT /usr/local/texlive/2017/texmf-dist/tex/latex/float/float.sty
INPUT /usr/local/texlive/2017/texmf-dist/tex/latex/base/inputenc.sty
INPUT /usr/local/texlive/2017/texmf-dist/tex/latex/base/inputenc.sty
INPUT /usr/local/texlive/2017/texmf-dist/tex/latex/base/utf8.def
INPUT /usr/local/texlive/2017/texmf-dist/tex/latex/base/utf8.def
INPUT /usr/local/texlive/2017/texmf-dist/tex/latex/base/t1enc.dfu
INPUT /usr/local/texlive/2017/texmf-dist/tex/latex/base/t1enc.dfu
INPUT /usr/local/texlive/2017/texmf-dist/tex/latex/base/ot1enc.dfu
INPUT /usr/local/texlive/2017/texmf-dist/tex/latex/base/ot1enc.dfu
INPUT /usr/local/texlive/2017/texmf-dist/tex/latex/base/omsenc.dfu
INPUT /usr/local/texlive/2017/texmf-dist/tex/latex/base/omsenc.dfu
INPUT /usr/local/texlive/2017/texmf-dist/tex/latex/amsfonts/amssymb.sty
INPUT /usr/local/texlive/2017/texmf-dist/tex/latex/amsfonts/amssymb.sty
INPUT /usr/local/texlive/2017/texmf-dist/tex/latex/amsfonts/amsfonts.sty
INPUT /usr/local/texlive/2017/texmf-dist/tex/latex/amsfonts/amsfonts.sty
INPUT /usr/local/texlive/2017/texmf-dist/tex/latex/booktabs/booktabs.sty
INPUT /usr/local/texlive/2017/texmf-dist/tex/latex/booktabs/booktabs.sty
INPUT main.aux
INPUT main.aux
OUTPUT main.aux
INPUT /usr/local/texlive/2017/texmf-dist/tex/context/base/mkii/supp-pdf.mkii
INPUT /usr/local/texlive/2017/texmf-dist/tex/context/base/mkii/supp-pdf.mkii
INPUT /usr/local/texlive/2017/texmf-dist/tex/generic/oberdiek/pdftexcmds.sty
INPUT /usr/local/texlive/2017/texmf-dist/tex/generic/oberdiek/pdftexcmds.sty
INPUT /usr/local/texlive/2017/texmf-dist/tex/generic/oberdiek/ifpdf.sty
INPUT /usr/local/texlive/2017/texmf-dist/tex/generic/oberdiek/ifpdf.sty
INPUT /usr/local/texlive/2017/texmf-dist/tex/latex/oberdiek/epstopdf-base.sty
INPUT /usr/local/texlive/2017/texmf-dist/tex/latex/oberdiek/epstopdf-base.sty
INPUT /usr/local/texlive/2017/texmf-dist/tex/latex/oberdiek/grfext.sty
INPUT /usr/local/texlive/2017/texmf-dist/tex/latex/oberdiek/grfext.sty
INPUT /usr/local/texlive/2017/texmf-dist/tex/generic/oberdiek/kvdefinekeys.sty
INPUT /usr/local/texlive/2017/texmf-dist/tex/generic/oberdiek/kvdefinekeys.sty
INPUT /usr/local/texlive/2017/texmf-dist/tex/latex/oberdiek/kvoptions.sty
INPUT /usr/local/texlive/2017/texmf-dist/tex/latex/oberdiek/kvoptions.sty
INPUT /usr/local/texlive/2017/texmf-dist/tex/generic/oberdiek/kvsetkeys.sty
INPUT /usr/local/texlive/2017/texmf-dist/tex/generic/oberdiek/kvsetkeys.sty
INPUT /usr/local/texlive/2017/texmf-dist/tex/latex/latexconfig/epstopdf-sys.cfg
INPUT /usr/local/texlive/2017/texmf-dist/tex/latex/latexconfig/epstopdf-sys.cfg
INPUT /usr/local/texlive/2017/texmf-dist/fonts/tfm/jknappen/ec/ecrm1728.tfm
INPUT /usr/local/texlive/2017/texmf-dist/fonts/tfm/jknappen/ec/ecrm1200.tfm
INPUT /usr/local/texlive/2017/texmf-dist/fonts/tfm/public/pl/plr12.tfm
INPUT /usr/local/texlive/2017/texmf-dist/fonts/tfm/public/pl/plr8.tfm
INPUT /usr/local/texlive/2017/texmf-dist/fonts/tfm/public/pl/plr6.tfm
INPUT /usr/local/texlive/2017/texmf-dist/tex/latex/polski/omlplm.fd
INPUT /usr/local/texlive/2017/texmf-dist/tex/latex/polski/omlplm.fd
INPUT /usr/local/texlive/2017/texmf-dist/fonts/tfm/public/pl/plmi12.tfm
INPUT /usr/local/texlive/2017/texmf-dist/fonts/tfm/public/pl/plmi8.tfm
INPUT /usr/local/texlive/2017/texmf-dist/fonts/tfm/public/pl/plmi6.tfm
INPUT /usr/local/texlive/2017/texmf-dist/tex/latex/polski/omsplsy.fd
INPUT /usr/local/texlive/2017/texmf-dist/tex/latex/polski/omsplsy.fd
INPUT /usr/local/texlive/2017/texmf-dist/fonts/tfm/public/pl/plsy10.tfm
INPUT /usr/local/texlive/2017/texmf-dist/fonts/tfm/public/pl/plsy8.tfm
INPUT /usr/local/texlive/2017/texmf-dist/fonts/tfm/public/pl/plsy6.tfm
INPUT /usr/local/texlive/2017/texmf-dist/tex/latex/polski/omxplex.fd
INPUT /usr/local/texlive/2017/texmf-dist/tex/latex/polski/omxplex.fd
INPUT /usr/local/texlive/2017/texmf-dist/fonts/tfm/public/pl/plex10.tfm
INPUT /usr/local/texlive/2017/texmf-dist/tex/latex/amsfonts/umsa.fd
INPUT /usr/local/texlive/2017/texmf-dist/tex/latex/amsfonts/umsa.fd
INPUT /usr/local/texlive/2017/texmf-dist/fonts/tfm/public/amsfonts/symbols/msam10.tfm
INPUT /usr/local/texlive/2017/texmf-dist/fonts/tfm/public/amsfonts/symbols/msam10.tfm
INPUT /usr/local/texlive/2017/texmf-dist/fonts/tfm/public/amsfonts/symbols/msam7.tfm
INPUT /usr/local/texlive/2017/texmf-dist/tex/latex/amsfonts/umsb.fd
INPUT /usr/local/texlive/2017/texmf-dist/tex/latex/amsfonts/umsb.fd
INPUT /usr/local/texlive/2017/texmf-dist/fonts/tfm/public/amsfonts/symbols/msbm10.tfm
INPUT /usr/local/texlive/2017/texmf-dist/fonts/tfm/public/amsfonts/symbols/msbm10.tfm
INPUT /usr/local/texlive/2017/texmf-dist/fonts/tfm/public/amsfonts/symbols/msbm7.tfm
OUTPUT main.pdf
INPUT /usr/local/texlive/2017/texmf-var/fonts/map/pdftex/updmap/pdftex.map
INPUT /usr/local/texlive/2017/texmf-dist/fonts/tfm/jknappen/ec/ecrm2074.tfm
INPUT /usr/local/texlive/2017/texmf-dist/fonts/tfm/jknappen/ec/ecbx2074.tfm
INPUT /usr/local/texlive/2017/texmf-dist/fonts/tfm/jknappen/ec/ecbx2488.tfm
INPUT images/1.png
INPUT ./images/1.png
INPUT ./images/1.png
INPUT /usr/local/texlive/2017/texmf-dist/fonts/tfm/public/pl/plr7.tfm
INPUT /usr/local/texlive/2017/texmf-dist/fonts/tfm/public/pl/plr5.tfm
INPUT /usr/local/texlive/2017/texmf-dist/fonts/tfm/public/pl/plmi10.tfm
INPUT /usr/local/texlive/2017/texmf-dist/fonts/tfm/public/pl/plmi7.tfm
INPUT /usr/local/texlive/2017/texmf-dist/fonts/tfm/public/pl/plmi5.tfm
INPUT /usr/local/texlive/2017/texmf-dist/fonts/tfm/public/pl/plsy10.tfm
INPUT /usr/local/texlive/2017/texmf-dist/fonts/tfm/public/pl/plsy7.tfm
INPUT /usr/local/texlive/2017/texmf-dist/fonts/tfm/public/pl/plsy5.tfm
INPUT /usr/local/texlive/2017/texmf-dist/fonts/tfm/public/amsfonts/symbols/msam10.tfm
INPUT /usr/local/texlive/2017/texmf-dist/fonts/tfm/public/amsfonts/symbols/msam7.tfm
INPUT /usr/local/texlive/2017/texmf-dist/fonts/tfm/public/amsfonts/symbols/msam5.tfm
INPUT /usr/local/texlive/2017/texmf-dist/fonts/tfm/public/amsfonts/symbols/msbm10.tfm
INPUT /usr/local/texlive/2017/texmf-dist/fonts/tfm/public/amsfonts/symbols/msbm7.tfm
INPUT /usr/local/texlive/2017/texmf-dist/fonts/tfm/public/amsfonts/symbols/msbm5.tfm
INPUT /usr/local/texlive/2017/texmf-dist/fonts/tfm/jknappen/ec/ecrm1440.tfm
INPUT /usr/local/texlive/2017/texmf-dist/fonts/tfm/jknappen/ec/ecbx1440.tfm
INPUT images/2.png
INPUT ./images/2.png
INPUT ./images/2.png
INPUT images/3.png
INPUT ./images/3.png
INPUT ./images/3.png
INPUT images/4.png
INPUT ./images/4.png
INPUT ./images/4.png
INPUT images/5.png
INPUT ./images/5.png
INPUT ./images/5.png
INPUT images/6.png
INPUT ./images/6.png
INPUT ./images/6.png
INPUT images/7.png
INPUT ./images/7.png
INPUT ./images/7.png
INPUT /usr/local/texlive/2017/texmf-dist/fonts/tfm/public/pl/plr12.tfm
INPUT /usr/local/texlive/2017/texmf-dist/fonts/tfm/public/pl/plmi12.tfm
INPUT /usr/local/texlive/2017/texmf-dist/fonts/tfm/public/pl/plsy10.tfm
INPUT /usr/local/texlive/2017/texmf-dist/fonts/tfm/public/amsfonts/symbols/msam10.tfm
INPUT /usr/local/texlive/2017/texmf-dist/fonts/tfm/public/amsfonts/symbols/msbm10.tfm
INPUT images/8.png
INPUT ./images/8.png
INPUT ./images/8.png
INPUT images/9.png
INPUT ./images/9.png
INPUT ./images/9.png
INPUT images/10.png
INPUT ./images/10.png
INPUT ./images/10.png
INPUT images/11.png
INPUT ./images/11.png
INPUT ./images/11.png
INPUT images/12.png
INPUT ./images/12.png
INPUT ./images/12.png
INPUT images/13.png
INPUT ./images/13.png
INPUT ./images/13.png
INPUT images/14.png
INPUT ./images/14.png
INPUT ./images/14.png
INPUT images/15.png
INPUT ./images/15.png
INPUT ./images/15.png
INPUT images/16.png
INPUT ./images/16.png
INPUT ./images/16.png
INPUT main.aux
INPUT /usr/local/texlive/2017/texmf-dist/fonts/enc/dvips/pl/plms.enc
INPUT /usr/local/texlive/2017/texmf-dist/fonts/enc/dvips/cm-super/cm-super-t1.enc
INPUT /usr/local/texlive/2017/texmf-dist/fonts/type1/public/pl/plsy10.pfb
INPUT /usr/local/texlive/2017/texmf-dist/fonts/type1/public/cm-super/sfbx1440.pfb
INPUT /usr/local/texlive/2017/texmf-dist/fonts/type1/public/cm-super/sfbx2074.pfb
INPUT /usr/local/texlive/2017/texmf-dist/fonts/type1/public/cm-super/sfbx2488.pfb
INPUT /usr/local/texlive/2017/texmf-dist/fonts/type1/public/cm-super/sfrm1000.pfb
INPUT /usr/local/texlive/2017/texmf-dist/fonts/type1/public/cm-super/sfrm1200.pfb
INPUT /usr/local/texlive/2017/texmf-dist/fonts/type1/public/cm-super/sfrm1728.pfb
