\relax 
\@writefile{toc}{\contentsline {chapter}{\numberline {1}Zapoznanie si\IeC {\k e} ze struktura wewn\IeC {\k e}trzn\IeC {\k a} asynchronicznego przerzutnika bistabilnego}{1}}
\@writefile{lof}{\addvspace {10\p@ }}
\@writefile{lot}{\addvspace {10\p@ }}
\@writefile{lof}{\contentsline {figure}{\numberline {1.1}{\ignorespaces Uk\IeC {\l }ad asynchronicznego przerzutnika bistabilnego\relax }}{1}}
\@writefile{lot}{\contentsline {table}{\numberline {1.1}{\ignorespaces Tabela prawdy asynchronicznego przerzutnika bistabilnego\relax }}{1}}
\@writefile{toc}{\contentsline {chapter}{\numberline {2}Zapoznanie si\IeC {\k e} ze struktura wewn\IeC {\k e}trzn\IeC {\k a} przerzutnik\IeC {\'o}w synchronicznych}{2}}
\@writefile{lof}{\addvspace {10\p@ }}
\@writefile{lot}{\addvspace {10\p@ }}
\@writefile{toc}{\contentsline {section}{\numberline {2.1}Synchroniczny przerzutnik JK}{3}}
\@writefile{lof}{\contentsline {figure}{\numberline {2.1}{\ignorespaces Uk\IeC {\l }ad synchronicznego przerzutnika JK\relax }}{3}}
\@writefile{lot}{\contentsline {table}{\numberline {2.1}{\ignorespaces Tabela prawdy\relax }}{4}}
\@writefile{toc}{\contentsline {section}{\numberline {2.2}Synchroniczny przerzutnik D}{4}}
\@writefile{lof}{\contentsline {figure}{\numberline {2.2}{\ignorespaces Uk\IeC {\l }ad synchroniczengo przerzutnika D\relax }}{4}}
\@writefile{lot}{\contentsline {table}{\numberline {2.2}{\ignorespaces Tabela prawdy\relax }}{4}}
\@writefile{toc}{\contentsline {section}{\numberline {2.3}Synchroniczny przerzutnik JK-Master-Slave}{5}}
\@writefile{lof}{\contentsline {figure}{\numberline {2.3}{\ignorespaces Uk\IeC {\l }ad synchronicznego przerzutnika JK-Master-Slave\relax }}{5}}
\@writefile{lof}{\contentsline {figure}{\numberline {2.4}{\ignorespaces Wynik pomiaru dla synchronicznego przerzutnika JK-Master-Slave\relax }}{5}}
\@writefile{toc}{\contentsline {chapter}{\numberline {3}Zapoznanie si\IeC {\k e} z parametrami dynamicznymi przerzutnik\IeC {\'o}w}{6}}
\@writefile{lof}{\addvspace {10\p@ }}
\@writefile{lot}{\addvspace {10\p@ }}
\@writefile{lof}{\contentsline {figure}{\numberline {3.1}{\ignorespaces Uk\IeC {\l }ad pomiarowy\relax }}{6}}
\@writefile{lof}{\contentsline {figure}{\numberline {3.2}{\ignorespaces Ustawienie generatora s\IeC {\l }\IeC {\'o}w\relax }}{7}}
\@writefile{toc}{\contentsline {section}{\numberline {3.1}Pomiar czasu propagacji sygna\IeC {\l }\IeC {\'o}w od wej\IeC {\'s}cia synchronizuj\IeC {\k a}cego do wyj\IeC {\'s}\IeC {\'c} Q i $\sim $Q}{7}}
\@writefile{lof}{\contentsline {figure}{\numberline {3.3}{\ignorespaces Czas propagacji synga\IeC {\l }u dla wej\IeC {\'s}cia Q(d=0): 10,03us\relax }}{7}}
\@writefile{toc}{\contentsline {section}{\numberline {3.2}Pomiar czasu propagacji sygna\IeC {\l }\IeC {\'o}w od wej\IeC {\'s}\IeC {\'c} asynchronicznych do wyj\IeC {\'s}\IeC {\'c} Q i $\sim $Q}{8}}
\@writefile{lof}{\contentsline {figure}{\numberline {3.4}{\ignorespaces Czas propagacji synga\IeC {\l }u dla wej\IeC {\'s}cia $\sim $Q: 10,03us\relax }}{8}}
\@writefile{toc}{\contentsline {section}{\numberline {3.3}Pomiar czasu ustalenia}{9}}
\@writefile{lof}{\contentsline {figure}{\numberline {3.5}{\ignorespaces Czas ustalenia: 26,5ns\relax }}{9}}
\@writefile{toc}{\contentsline {section}{\numberline {3.4}Pomiar czasu utrzymania}{9}}
\@writefile{lof}{\contentsline {figure}{\numberline {3.6}{\ignorespaces Czas utrzymania: 9,96us\relax }}{9}}
\@writefile{toc}{\contentsline {section}{\numberline {3.5}Pomiar maksymalnej cz\IeC {\k e}stotliwo\IeC {\'s}ci sygna\IeC {\l }u synchronizuj\IeC {\k a}cego maksymalna cz\IeC {\k e}stotliwo\IeC {\'s}ci to 50MHz}{10}}
\@writefile{lof}{\contentsline {figure}{\numberline {3.7}{\ignorespaces Ustawienie generator s\IeC {\l }\IeC {\'o}w\relax }}{10}}
\@writefile{lof}{\contentsline {figure}{\numberline {3.8}{\ignorespaces Wynik pomiaru\relax }}{10}}
\@writefile{toc}{\contentsline {chapter}{\numberline {4}Przyk\IeC {\l }adowe uk\IeC {\l }ady z przerzutnikami}{11}}
\@writefile{lof}{\addvspace {10\p@ }}
\@writefile{lot}{\addvspace {10\p@ }}
\@writefile{toc}{\contentsline {section}{\numberline {4.1}Realizacja przerzutnika T na bazie JK}{11}}
\@writefile{lot}{\contentsline {table}{\numberline {4.1}{\ignorespaces Tabela prawdy\relax }}{11}}
\@writefile{lof}{\contentsline {figure}{\numberline {4.1}{\ignorespaces Uk\IeC {\l }ad przerzutnika T na bazie JK\relax }}{11}}
\@writefile{toc}{\contentsline {section}{\numberline {4.2}Realizacja przerzutnika D na bazie JK}{12}}
\@writefile{lot}{\contentsline {table}{\numberline {4.2}{\ignorespaces Tabela prawdy\relax }}{12}}
\@writefile{lof}{\contentsline {figure}{\numberline {4.2}{\ignorespaces Uk\IeC {\l }ad przerzutnika D na bazie JK\relax }}{12}}
\@writefile{toc}{\contentsline {section}{\numberline {4.3}Budowa dw\IeC {\'o}jki licz\IeC {\k a}cej w oparciu o przerutnik T lub D}{13}}
\@writefile{lof}{\contentsline {figure}{\numberline {4.3}{\ignorespaces Uk\IeC {\l }ad pomiarowy\relax }}{13}}
\@writefile{toc}{\contentsline {section}{\numberline {4.4}Wnioski}{13}}
